###    1  2  3  4  5  6  7  8  9 10   11 12 13 14 15 16 17 18 19 20   21 22 23 24 25 26 27 28 29 30   31 32 33 34 35 36 37 38 39 40   
###   41 42 43 44 45 46 47 48 49 50   51 52 53 54 55 56 57 58 59 60   61 62 63 64 65 66 67 68 69 70   71 72 73 74 75 76 77 78 79 80   
  1a  19 18 14 15 16 16 18 17 15 15   14 15 13 17 16 17 16 14 14 16   10 14 15 18 14 14 15 16 13 16   15 16 17 16 19 19 19 16 17 16   
  1b  18 19 19 18 19 18 21 22 19 19   18 20 18 16 19 19 18 15 16 15   16 18 20 16 20 17 21 19 20 19   21 20 16 20 16 19 18 16 17 19   
  2a  12 17 15 13 17 16 18 15 15 11   16 14 13 18 17 13 17 17 14 15   18 17 13 15 18 16 14 15 17 17   18 18 17 17 15 17 17 17 19 19   
  2b  20 17 20 19 17 15 17 19 20 15   19 15 18 19 17 19 18 17 17 17   21 17 17 18 16 17 15 22 20 18   21 18 17 17 18 17 15 18 17 16   
  3a  15 16 16 14 16 18 15 14 14 15   17 19 15 16 14 15 15 15 15 15   14 13 15 15 17 16 15 17 15 16   14 15 17 17 17 17 19 16 19 18   
  3b  16 17 15 17 16 17 17 19 18 17   19 19 23 16 18 17 14 18 21 18   19 17 17 18 19 17 18 19 17 17   19 16 15 17 18 18 18 17 18 17   
  4a  11 15 16 16 16 14 15 16 14 15   18 17 13 16 15 19 16 18 15 16   17 17 16 15 17 14 15 14 17 15   17 18 16 13 19 18 16 14 15 19   
  4b  17 16 20 19 18 18 19 21 19 18   19 15 18 15 19 18 21 17 17 18   16 19 17 21 19 17 18 17 20 19   20 19 19 20 15 18 17 21 18 17   
  5a  17 17 13 14 17 16 16 13 18 15   16 16 12 15 17 16 15 18 18 12   17 16 18 18 17 15 19 16 15 16   16 15 17 16 16 17 17 15 19 18   
  5b  18 18 17 19 15 13 21 17 19 16   20 15 17 19 20 21 18 18 18 19   21 21 19 16 18 17 18 18 18 20   21 21 21 17 17 17 16 17 19 18   
  6a  17 17 15 16 15 17 14 15 16 15   19 15 14 18 15 18 14 17 15 16   17 15 15 16 16 14 16 16 15 18   17 16 17 16 16 17 18 16 19 19   
  6b  18 19 20 18 18 19 17 20 16 20   18 17 20 21 17 19 16 17 17 18   19 17 15 17 19 19 18 17 17 18   18 19 21 17 18 18 19 19 16 18   
  7a  13 15 16 14 14 15 14 16 18 15   15 18 16 15 18 14 16 13 16 17   17 15 17 17 16 16 18 15 17 17   17 17 16 16 17 16 18  8 30 17   
  7b  20 14 18 19 19 17 19 20 17 18   18 16 20 20 19 17 19 22 18 20   17 16 20 19 18 19 17 19 19 17   17 19 18 16 16 17 19 18 20 20   
  8a  15 14 16 16 15 15 16 16 16 17   15 17 16 14 17 16 15 15 17 17   15 15 16 15 18 14 18 19 15 17   17 16 18 16 18 15 15 20 20 15   
  8b  17 22 15 15 20 17 19 13 16 19   18 21 21 23 20 17 19 16 17 22   21 19 17 20 17 18 19 17 21 19   17 19 17 19 18 17 24 18 18 16   
  9a  17 15 16 14 17 14 13 15 16 15   15 16 13  5 15 16 16 16 16 17   15 13 17 16 17 16 18 16 13 16   14 17 16 15 18 18 17 15 19 16   
  9b  18 17 19 15 20 19 18 17 22 17   19 18 18 19 19 19 15 17 17 20   18 18 16 17 18 15 18 19 18 17   16 18 19 17 17 18 18 16 17 19   
 10a  18 17 16 14 15 17 18 16 20 15   15 15 16 17 21 15 15 17 19 18   16 15 18 18 19 19 15 18 17 17   19 19 18 15 19 15 22 16 15 20   
 10b  18 18 20 17 19 18 21 22 20 20   18 19 17 19 19 17 18 17 23 19   18 18 20 20 16 21 19 17 19 18   18 17 19 18 18 17 17 18 16 17   
 11a  13 16 14 17 17 18 16 14 14 17   14 15 15 14 17 18 16 15 14 18   17 17 15 16 17 14 16 14 19 15   18 19 17 18 20 14 15 19 17 15   
 11b  18 19 21 19 18 18 21 17 18 18   20 18 19 21 19 19 17 19 22 18   20 15 17 19 15 19 19 19 21 18   15 20 21 18 18 19 19 19 15 22   
 12a  14 16 17 16 15 16 19 16 15 14   17 16 16 17 16 17 15 17 18 17   14 17 14 17 16 15 18 19 17 16   21 16 17 17 14 17 23 18 20 17   
 12b  17 16 19 19 17 19 19 17 19 19   18 19 22 15 19 16 22 15 21 21   19 17 16 19 19 17 21 17 17 18   18 20 19 18 19 17 15 19 20 17   
 13a  15 16 14 15 19 16 18 16 19 16   15 17 18 15 18 17 19 19 17 16   17 17 19 15 14 16 16 16 16 15   18 16 18 13 19 17 20 17 21 17   
 13b  19 20 21 18 19 20 18 19 18 22   19 19 19 19 22 17 17 17 19 18   20 18 16 16 16 17 18 18 19 18   18 17 20 19 17 19 19 16 19 19   
 14a  17 13 12 15 14 18 16 14 18 15   17 15 14 16 16 17 13 16 16 16   16 14 16 16 16 14 17 15 15 17   19 19 15 17 17 17 19 19 16 20   
 14b  21 16 20 17 19 20 17 22 20 20   20 19 16 17 21 16 15 21 20 18   18 17 17 19 19 20 19 18 20 17   18 19 19 19 18 17 18 16 18 15   
 15a  14 16 16 16 17 12 19 18 16 17   18 16 14 16 20 15 16 16 15 17   13 18 19 16 17 16 18 15 19 15   17 17 18 16 17 19 21 19 20 18   
 15b  19 19 17 19 17 18 22 21 18 20   19 17 19 18 15  7 15 15 17 17   19 17 17 20 18 17 21 20 21 17   29 20 16 20 19 18 17 16 18 18   
 16a  14 14 18 18 16 17 16 14 15 14   15 14 16 17 18 17 16 13 18 18   13 14 17 19 16 16 18 17 16 17   17 16 17 17 19 19 16 15 18 16   
 16b  21 18 16 16 19 18 21 16 19 16   15 19 16 16 18 18 18 19 19 21   18 18 19 17 20 16 17 16 18 18   30 17 20 16 19 18 17 18 17 19   
 17a  17 13 15 15 14 17 14 15 17 16   18 14 18 17 18 19 15 16 17 16   18 14 17 14 14 14 13 15 16 17   15 16 18 16 18 18 18 17 18 18   
 17b  17 17 16 20 16 16 18 17 18 20   16 19 17 20 17 19 19 18 18 20   16 18 17 15 22 18 18 17 21 20   17 18 20 17 19 17 19 16 20 18   
 18a  15 14 15 16 13 15 17 17 15 15   14 15 18 14 15 17 17 17 15 15   19 15 17 14 16 15 15 15 17 19   17 16 17 16 16 18 21 17 21 20   
 18b  18 19 16 16 15 17 18 17 16 18   16 19 23 19 18 15 20 16 20 16   19 19 17 17 19 18 19 15 19 18   19 17 19 19 17 18 20 20 18 17   
 19a  14 17 17 15 16 15 16 13 16 17   15 17 14 18 16 16 31 16 15 15   17 13 16 14 15 17 14 17 16 14   21 16 18 17 21 16 18 20 15 19   
 19b  19 17 16 17 21 18 19 16 21 15   19 21 19 17 18 20 21 17 21 17   17 21 19 21 16 22 18 17 19 19   18 17 18 16 19 19 19 16 20 20   
 20a  14 14 16 18 17 15 16 16 17 17   19 15 19 15 16 18 15 15 17 16   15 16 16 15 15 17 14 13 14 19   17 15 19 15 22 15 19 16 19 18   
 20b  15 18 15 19 20 20 18 20 15 19   19 18 17 19 18 16 21 16 20 19   15 18 19 18 18 18 19 19 20 19   19 19 20 19 19 17 16 18 17 19   
 21a  16 15 16 16 16 12 15 17 16 15   16 16 14 17 18 18 14 15 13 16   15 15 16 15 15 14 16 16 18 16   17 17 18 18 18 15 16 19 18 17   
 21b  21 17 20 18 16 20 19 21 19 19   15 18 18 31 20 17 19 19 19 18   18 18 19 20 19 18 19 17 20 16   16 19 17 20 18 19 19 18 19 17   
 22a  14 13 14 16 19 14 15 18 15 15   16 14 19 19 15 17 15 14 15 16   16 19 18 15 15 16 18 13 14 16   20 17 16 17 18 17 16 17 17 18   
 22b  19 17 18 19 18 18 18 17 17 16   22 16 19 18 19 18 19 17 19 17   19 20 20 18 17 19 21 16 15 20   20 19 19 15 15 20 18 17 19 19   
 23a  17 16 15 18 15 15 17 15 17 16   16 15 14 16 17 15 17 14 17 16   17 19 15 16 17 16 16 17 20 16   18 17 18 18 18 17 21 19 15 18   
 23b  19 16 20 16 21 17 17 16 20 19   19 16 20 18 19 17 21 16 21 18   21 16 20 19 17 20 17 18 20 17   20 18 20 15 15 16 16 17 18 19   
 24a  16 13 16 18 17 15 14 15 16 13   16 16 16 19 18 20 15 18 13 14   19 18 17 16 16 18 15 15 16 17   15 14 16 16 16 21 17 17 18 17   
 24b  21 18 19 19 19 20 18 19 16 19   18 15 22 19 15 19 22 18 18 18   17 16 18 18 17 20 20 19 18 16   16 16 17 22 18 16 18 17 20 21   
 25a  17 16 15 16 17 16 16 15 18 12   13 16 18 16 14 17 15 16 14 13   17 14 17 16 15 16 19 16 17 17   15 16 15 16 15 17 19 18 19 17   
 25b  19 16 16 19 21 18 21 31  5 17   18 18 21 17 20 18 18 19 19 18   19 15 18 18 18 15 17 19 17 20   19 19 18 16 16 18 19 19 19 17   
 26a  16 16 14 15 18 15 15 16 18 16   14 17 15 15 15 15 16 16 16 19   16 14 16 16 15 16 15 15 18 17   18 17 18 19 21 17 16 15 18 21   
 26b  19 17 20 13 17 19 16 18 19 16   22 17 19 17 18 15 17 16 21 20   21 18 17 18 17 17 17 19 20 20   21 20 20 18 18 17 18 20 19 17   
 27a  16 16 15 14 15 16 17 13 16 15   15 12 18 14 16 15 16 16 15 15   17 13 17 16 18 16 18 17 15 15   19 16 14 14 17 18 16 19 18 19   
 27b  18 21 16 18 18 16 20 18 15 16   16 14 18 19 20 19 19 23 20 20   16 19 20 18 17 17 18 17 18 19   16 19 19 21 19 18 17 19 19 19   
 28a  17 14 15 15 13 16 17 13 18 17   15 16 16 17 18 15 19 15 18 16   16 16 18 15 16 16 17 16 18 18   18 18 19 19 15 16 17 16 21 15   
 28b  17 16 18 17 17 19 18 18 20 17   21 18 19 18 18 17 16 31  9 18   19 18 18 18 19 19 20 17 18 18   17 16 17 17 17 17 17 19 17 20   
 29a  15 14 15 17 14 17 14 16 16 14   17 12 17 16 15 17 15 18 17 17   16 15 18 16 15 16 17 16 15 15   17 17 18 17 15 15 15 21 18 17   
 29b  18 18 23 18 17 17 17 21 18 21   22 18 19 17 19 17 19 20 19 19   18 21 19 18 17 19 19 18 19 21   19 18 20 17 22 17 16 19 18 19   
 30a  16 16 15 16 16 13 18 15 16 14   14 14 14 13 12 17 14 16 15 19   16 13 18 15 14 15 14 15 17 16   17 15 18 18 16 18 20 18 20 16   
 30b  16 17 17 17 18 19 17 20 19 17   18 19 21 17 19 18 16 18 19 19   17 15 20 14 19 19 19 20 19 18   20 16 18 17 19 17 17 17 17 20   
 31a  15 14 18 18 15 13 17 14 14 15   19 16 16 17 16 15 15 15 18 12   16 19 17 17 18 15 23 17 16 14   19 18 19 18 19 16 18 17 14 18   
 31b  20 20 18 16 20 19 20 19 19 18   19 18 18 18 19 19 20 19 21 20   19 19 19 18 17 20 18 16 17 20   18 19 20 18 20 18 17 17 19 20   
 32a  13 17 15 18 14 14 16 16 16 18   14 15 17 14 13 21 17 15 19 16   16 19 16 16 18 17 17 16 17 18   17 17 17 16 17 18 17 16 19 17   
 32b  16 21 19 16 22 19 18 20 21 15   15 18 17 18 21 17 17 17 17 16   17 16 18 17 19 19 21 20 21 17   20 16 21 19 18 17 16 18 19 19   
 33a  17 15 15 16 16 16 14 15 17 17   18 13 15 14 15 17 16 14 17 12   18 16 16 16 17 15 18 17 16 17   15 16 16 17 19 16 19 18 19 17   
 33b  19 18 19 18 18 18 16 19 22 19   20 17 20 20 18 18 20 20 19 19   17 17 19 18 20 16 16 18 18 19   18 19 15 17 19 20 19 17 19 19   
 34a  16 16 17 18 15 15 17 15 15 15   19 13 17 18 15 16 16 14 16 15   17 15 14 17 15 18 14 17 19 16   18 14 16 17 15 17 17 18 19 19   
 34b  18 16 23 19 19 19 18 19 19 19   19 18 20 20 18 19 19 21 19 17   19 17 18 20 18 19 18 17 21 17   18 19 19 16 17 18 17 16 19 17   
 35a  16 16 18 14 16 15 16 14 17 16   17 15 15 13 16 16 16 16 16 16   17 16 14 16 16 16 15 14 14 19   17 18 17 15 19 19 17 19 21 18   
 35b  16 17 20 17 18 18 22 20 18 16   18 19 17 17 19 17 20 17 20 19   18 17 18 16 19 21 15 19 19 17   19 18 19 20 17 15 17 17 18 16   
 36a  16 16 16 16 17 19 17 17 15 14   16 16 15 15 17 16 16 15 13 17   17 18 16 17 17 18 18 16 16 15   16 16 16 16 18 19 19 15 18 16   
 36b  17 21 17 17 17 19 19 19 21 16   18 20 21 17 21 19 17 18 20 18   18 16 18 14 19 18 16 17 18 18   18 15 17 17 18 16 20 15 16 16   
 37a  15 17 15 14 17 11 14 18 14 16   14 17 15 17 19 17 18 15 17 14   17 16 17 17 17 14 17 15 19 15   18 19 16 19 17 17 19 19 19 21   
 37b  18 15 18 18 16 18 18 18 18 16   18 20 17 18 19 16 18 18 17 18   20 19 19 18 23 20 19 15 19 21   17 17 19 17 17 17 20 19 18 20   
 38a  16 16 14 15 14 19 15 13 14 17   14 13 16 16 17 14 18 19 13 16   17 14 17 16 17 19 16 17 16 16   20 19 21 16 18 15 18 15 19 17   
 38b  18 19 20 17 17 17 22 20 18 18   19 18 21 18 17 17 17 20 17 19   21 19 18 18 18 18 21 20 18 17   16 18 19 18 19 18 19 19 19 17   
 39a  19 15 14 15 18 14 18 15 16 15   13 16 13 15 13 16 19 15 15 19   16 17 18 15 16 13 15 19 15 17   22 15 16 15 19 19 20 19 17 17   
 39b  18 19 19 19 20 16 19 19 17 17   19 22 17 16 20 17 22 20 22 18   18 22 21 17 19 19 18 16 22 16   16 17 19 18 16 20 19 18 22 20   
 40a  15 15 15 18 15 21 16 14 13 15   19 17 15 17 18 15 19 17 17 14   17 15 17 16 17 13 15 16 18 14   19 16 17 17 16 15 17 14 19 17   
 40b  18 15 23 17 17 21 18 19 17 18   19 18 17 18 21 19 19 18 21 20   17 18 19 18 17 17 18 19 17 19   19 17 15 17 18 17 17 19 19 16   
 41a  15 17 18 14 14 14 18 16 15 17   17 14 17 14 14 16 18 17 18 15   16 17 17 15 18 15 15 13 19 15   17 13 16 18 19 17 17 19 17 20   
 41b  18 18 19 17 19 18 18 17 21 17   17 15 20 18 18 19 23 19 18 19   18 20 16 17 19 20 16 19 18 20   16 16 18 19 16 18 21 17 19 18   
 42a  13 15 18 16 16 14 13 16 15 13   15 15 13 15 17 17 18 15 15 16   15 19 15 15 15 19 15 16 16 17   16 31 17 16 17 18 21 16 16 22   
 42b  17 19 19 16 17 17 16 21 22 19   21 17 21 19 18 17 16 19 20 16   21 19 19 19 20 18 20 22 16 15   20 19 18 19 16 16 18 17 17 16   
 43a  17 17 15 16 18 19 17 16 13 14   17 18 15 16 15 16 17 17 16 16   15 14 18 16 16 18 19 15 16 18   15 16 19 14 18 16 18 19 17 19   
 43b  22 15 20 19 19 19 16 18 19 19   19 17 21 16 19 18 19 20 18 19   17 18 18 19 18 15 17 16 17 21   18 18 19 18 18 21 19 17 18 18   
 44a  15 17 16 15 15 14 15 16 14 14   17 16 17 16 17 17 16 16 16 17   17 13 17 18 15 15 16 14 15 17   15 19 20 15 19 16 16 17 20 18   
 44b  18 17 20 19 22 16 19 19 18 17   18 18 19 19 18 17 18 17 19 15   19 18 20 20 20 17 20 20 19 17   17 16 18 18 19 18 20 18 19 19   
 45a  13 15 19 19 16 18 16 14 16 14   16 15 16 13 16 15 15 15 18 15   15 15 13 13 15 13 17 15 19 17   18 15 13 18 17 16 20 18 18 18   
 45b  19 20 18 18 19 19 20 17 16 18   17 17 19 18 23 20 19 16 17 19   17 20 18 20 18 15 21 21 17 18   18 19 20 15 21 19 16 20 17 19   
 46a  15 16 15 16 16 15 17 15 16 17   15 14 16 19 13 15 17 16 17 15   14 15 17 14 15 19 17 17 18 16   17 17 19 16 19 17 15 17 18 20   
 46b  16 20 23 19 20 17 18 18 18 18   16 20 19 17 17 17 19 20 19 17   18 21 17 16 20 21 17 18 17 19   18 20 18 21 17 19 18 19 21 17   
 47a  17 15 15 17 18 14 15 15 13 16   15 16 14 16 15 15 14 17 15 16   18 13 17 15 16 15 16 16 15 18   17 15 18 14 17 15 16 16 17 15   
 47b  21 16 19 19 19 17 20 15 16 15   16 17 17 19 19 19 18 19 19 19   19 20 19 17 19 19 17 17 15 18   20 17 15 17 18 20 16 15 19 19   
 48a  15 17 13 16 16 16 16 14 16 15   17 17 19 16 17 15 16 17 16 16   17 14 16 14 15 15 14 14 18 17   14 15 19 19 18 17 17 15 19 18   
 48b  19 20 18 17 21 18 20 19 19 18   20 18 21 20 20 18 23 18 19 19   18 16 19 18 19 19 20 20 19 17   19 17 20 21 18 18 17 19 17 17   
 49a  16 14 15 15 16 16 17 14 14 18   18 13 17 16 16 15 17 12 16 18   18 14 17 15 14 14 16 15 17 14   16 19 15 17 17 17 18 21 20 15   
 49b  18 19 17 16 16 19 21 16 17 21   17 21 18 20 21 20 22 17 21 20   18 20 17 17 20 17 18 15 17 15   17 20 21 19 17 17 17 18 18 21   
 50a  15 17 18 16 15 15 20 17 16 15   17 15 16 16 16 15 17 18 18 14   18 15 17 15 17 15 16 15 16 15   15 17 21 19 15 19 20 16 19 17   
 50b  21 19 17 14 19 15 18 15 17 18   16 21 18 18 21 17 15 18 17 18   20 21 16 20 18 16 20 17 19 17   21 17 15 19 18 18 16 17 17 16   
 51a  13 14 16 14 13 14 17 15 18 12   15 14 14 13 14 15 15 15 19 17   18 14 14 14 15 17 17 15 16 17   19 15 16 19 19 17 15 17 19 19   
 51b  19 18 19 19 18 17 18 16 20 15   19 15 20 19 22 17 20 21 17 19   17 18 20 18 20 17 20 18 17 20   17 18 16 19 18 15 19 18 20 19   
 52a  15 17 15 17 15 13 12 13 17 15   16 15 16 15 14 15 17 16 16 16   20 16 16 16 17 16 18 16 19 13   17 17 19 17 16 18 16 18 16 17   
 52b  17 17 17 19 21 17 24 17 21 15   18 17 17 17 17 17 22 18 17 19   17 17 18 18 19 19 18 19 18 17   19 19 19 17 22 15 16 18 19 21   
 53a  16 14 15 16 17 20 17 16 13 14   19 15 18 17 14 17 20 13 17 15   19 18 15 18 16 16 16 16 18 17   15 16 20 17 14 16 18 14 17 17   
 53b  19 19 17 18 18 16 18 16 16 20   21 21 17 17 18 17 20 17 20 17   17 18 16 18 20 17 18 17 18 19   17 15 19 19 20 17 20 19 18 18   
 54a  14 19 15 16 15 17 19 14 14 16   15 13 17 15 15 14 15 12 15 16   18 15 14 15 14 16 20 14 18 17   15 17 15 17 17 20 16 18 18 18   
 54b  17 15 20 19 17 13 17 16 24 18   18 19 19 20 18 18 20 18 20 15   18 20 19 19 19 17 18 18 18 17   16 19 18 20 17 20 19 19 19 20   
 55a  14 18 16 15 17 17 13 19 16 17   15 15 16 16 15 15 18 18 13 14   17 15 17 17 17 15 19 19 16 17   17 17 17 19 15 21 17 17 15 15   
 55b  18 17 20 20 19 16 20 18 20 18   17 19 22 20 18 19 21 18 18 19   17 17 18 31 17 17 16 20 17 19   18 16 17 17 19 20 22 17 21 19   
 56a  13 16 13 15 17 17 17 16 14 16   19 17 17 16 13 16 18 16 20 17   15 17 18 14 19 17 16 17 14 19   18 16 16 18 13 19 15 17 18 22   
 56b  17 19 17 18 18 17 20 17 16 18   14 19 18 18 19 17 19 17 19 19   20 21 18 19 16 17 18 21 16 15   21 19 18 18 18 16 18 16 17 18   
 57a  15 15 16 14 15 15 18 16 16 15   15 17 17 15 17 18 16 13 18 15   16 16 17 17 15 13 21 20 17 15   16 18 17 18 18 17 18 17 19 19   
 57b  18 20 19 19 19 17 17 19 21 22   18 19 17 15 19 19 19 20 23 15   22 20 22 18 18 20 20 17 21 17   21 17 18 20 16 20 18 16 18 15   
 58a  17 15 16 14 16 14 16 14 15 14   15 16 17 14 16 17 15 15 17 17   16 15 18 17 16 17 16 15 19 18   20 17 16 13 15 17 17 16 19 16   
 58b  16 16 17 16 18 18 20 19 19 19   20 19 19 20 20 19 18 18 16 18   22 17 18 20 21 19 19 19 17 17   19 18 19 15 18 17 21 18 19 19   
 59a  14 14 15 13 17 16 14 14 13 15   19 14 16 15 17 14 14 12 17 17   13 15 16 17 18 17 17 17 15 17   19 17 15 17 17 16 21 19 17 19   
 59b  17 19 20 22 17 23 17 19 20 20   20 18 19 18 19 16 16 17 21 21   20 18 19 20 16 17 16 16 16 31   19 18 21 16 18 15 17 16 20 18   
 60a  15 20 14 16 16 16 19 15 16 16   14 14 19 15 19 18 17 17 16 13   16 14 15 16 17 13 16 16 17 16   17 16 16 19 18 18 21 19 18 21   
 60b  19 18 19 19 15 19 17 20 21 21   19 17 18 21 17 18 18 20  1 18   20 18 19 19 17 15 18 17 18 19   17 17 20 16 19 19 19 19 18 20   
 61a  16 18 14 13 17 15 21 18 17 15   16 16 16 15 17 15 19 14 16 18   13 15 17 15 15 17 18 16 17 17   14 16 16 18 17 16 19 17 21 17   
 61b  18 20 19 18 16 19 20 20 19 19   16 17 19 19 18 19 18 16 18 17   19 19 17 18 18 19 18 18 18 19   19 18 18 18 16 18 19 20 17 17   
 62a  18 17 19 17 12 16 17 15 18 15   17 18 15 15 17 16 16 18 17 18   15 18 16 17 16 16 14 15 18 15   16 16 17 20 15 18 17 18 17 20   
 62b  18 17 20 17 16 16 22 17 15 17   16 17 21 18 16 15 20 16 21 18   18 19 16 17 18 21 21 20 20 31    9 20 22 17 17 18 19 19 18 17   
 63a  19 14 17 14 13 15 16 15 14 15   14 13 14 19 16 19 19 17 17 16   15 15 18 16 16 15 17 15 17 15   15 19 18 16 19 17 17 15 18 17   
 63b  21 17 19 19 20 15 18 18 18 19   18 18 18 21 17 19 15 16 21 19   16 19 16 16 21 16 20 18 20 16   18 14 15 17 20 18 20 20 17 17   
 64a  14 18 13 17 15 15 16 16 21 16   14 12 15 14 15 14 15 16 15 17   15 15 17 14 16 17 18 17 16 17   16 17 15 17 15 16 20 17 19 19   
 64b  19 19 15 17 21 19 22 16 19 17   20 21 20 19 18 20 19 18 19 19   22 18 17 18 20 17 19 18 18 16   19 18 19 16 19 16 19 18 20 17   
 65a  15 16 18 16 16 13 18 17 16 17   18 16 14 15 15 16 17 14 16 13   15 14 16 18 16 16 18 17 16 18   19 18 19 17 15 18 16 16 18 17   
 65b  19 17 18 20 20 18 15 15 18 18   17 19 24 19 16 17 18 17 18 19   17 17 21 16 20 19 18 17 16 17   17 18 17 19 17 22 23 18 20 18   
 66a  18 14 15 18 16 15 13 13 16 14   16 15 18 17 17 17 16 13 19 16   17 18 16 15 17 16 18 15 17 16   16 17 19 17 17 15 18 18 19 18   
 66b  18 21 17 16 18 16 19 19 17 18   19 18 16 20 18 18 17 18 20 19   20 16 15 19 17 16 17 16 20 18   18 20 20 18 18 18 19 18 21 17   
 67a  15 16 15 12 15 14 15 16 15 16   15 15 14 19 16 15 17 20 15 17   16 16 18 15 15 14 17 14 14 15   15 18 20 16 17 17 19 19 20 18   
 67b  18 17 20 18 19 17 19 17 21 18   19 17 19 19 17 18 19 19 23 18   19 19 18 16 21 17 18 18 21 19   19 21 20 16 16 16 22 22 20 17   
 68a  18 15 15 14 16 14 16 13 17 18   17 15 14 15 20 16 18 15 16 17   15 15 18 16 15 16 16 16 17 14   16 19 21 17 20 16 20 17 17 19   
 68b  18 21 17 14 18 16 18 18 17 18   18 22 19 19 20 14 20 15 17 17   21 18 15 15 19 19 17 17 20 16   18 20 19 19 20 15 19 17 17 16   
 69a  15 16 15 16 17 17 15 10 18 12   16 17 17 13 16 14 17 15 17 17   14 15 17 15 17 15 14 16 21 18   15 16 21 16 15 19 18 16 17 16   
 69b  21 17 15 22 19 21 18 17 17 20   20 16 16 17 18 20 16 17 19 20   18 19 22 18 19 18 20 19 19 18   19 16 17 19 18 19 19 17 19 16   
 70a  15 15 16 14 17 15 17 14 18 14   18 15 14 16 16 15 15 16 16 17   16 15 13 15 16 15 16 16 15 18   18 16 17 16 20 16 19 16 17 16   
 70b  19 19 19 19 16 17 19 17 17 18   18 19 18 16 21 17 17 22 18 19   19 16 19 18 18 17 19 11 15 21   19 20 16 19 14 17 20 17 15 16   
 71a  14 17 18 15 15 15 16 16 17 12   15 16 19 15 16 14 16 18 15 15   19 19 15 15 17 17 19 15 18 18   19 16 19 15 18 15 19 20 18 17   
 71b  20 15 19 20 18 18 16 18 18 18   19 19 17 19 17 18 19 15 19 16   21 19 19 18 18 17 19 19 21 19   15 23 20 18 20 17 18 19 17 20   
 72a  17 14 15 12 16 17 15 16 17 17   19 15 15 17 16 14 13 17 13 16   16 15 16 17 18 17 15 19 17 15   16 16 20 19 18 20 17 16 19 17   
 72b  18 17 18 18 18 17 19 18 19 16   20 15 19 16 18 18 19 19 18 18   19 17 16 17 16 18 18 17 17 16   20 17 17 19 19 17 21 17 18 19   
 73a  17 13 16 15 15 17 17 16 14 17   15 16 15 14 15 19 14 15 15 15   17 18 16 17 16 16 19 18 15 15   15 16 17 17 20 17 18 16 16 17   
 73b  14 17 16 17 18 21 18 16 19 17   19 19 20 18 18 15 18 17 19 18   19 16 21 18 16 17 17 16 18 17   17 15 15 17 19 17 18 19 18 20   
 74a  16 17 15 17 13 16 15 16 17 15   17 15 15 16 15 12 15 14 15 14   17 15 16 17 18 16 18 17 19 16   20 15 17 14 18 16 19 15 18 19   
 74b  18 16 16 19 19 18 18 18 20 17   22 17 19 18 16 17 18 17 20 18   19 19 21 15 22 18 16 19 19 17   20 20 20 18 19 18 16 17 19 17   
 75a  17 15 15 15 14 13 12 15 13 15   17 15 20 15 17 15 17 15 15 15   15 15 15 16 16 15 18 16 16 16   17 15 16 16 17 17 20 18 18 19   
 75b  18 18 20 19 19 19 17 18 19 18   18 18 20 20 22 17 15 18 18 19   21 19 17 17 18 19 19 18 18 18   18 19 17 20 17 20 18 17 19 16   
 76a  17 13 17 16 14 16 14 16 18 15   13 16 18 13 16 16 15 16 15 16   15 16 14 16 16 16 16 18 19 18   21 17 16 18 17 17 19 17 17 19   
 76b  19 17 18 19 18 16 21 19 23 17   18 16 17 21 19 18 19 18 21 17   20 17 17 19 20 20 19 19 17 21   18 17 18 17 18 18 18 16 17 17   
 77a  17 14 14 15 15 16 16 16 17 18   16 15 15 17 16 17 18 15 16 17   19 19 17 18 16 19 15 13 17 13   15 16 16 18 17 15 18 17 17 19   
 77b  18 19 16 17 20 17 20 20 18 19   17 19 18 18 19 18 19 19 17 18   17 18 19 19 25 16 19 18 19 19   18 16 15 17 18 17 16 19 16 19   
 78a  14 15 16 20 20 13 15 16 13 15   14 16 18 17 15 16 15 17 15 17   15 16 16 16 16 17 14 18 12 16   18 16 15 17 17 20 18 19 20 17   
 78b  15 17 17 21 17 17 20 21 19 20   19 19 19 17 17 20 19 19 19 18   21 17 20 18 18 19 21 18 19 18   19 21 17 19 18 19 19 18 19 17   
 79a  15 14 15 15 17 16 13 15 15 14   18 19 15 15 17 14 16 15 16 16   15 17 17 17 17 15 21 17 18 16   16 20 17 13 19 17 19 18 18 22   
 79b  18 18 18 18 21 20 19 18 19 20   17 19 19 18 19 16 19 17 18 18   18 17 20 15 18 21 18 16 19 17   19 20 20 18 19 19 18 18 18 16   
 80a  12 16 15 18 15 14 14 15 14 16   18 16 18 17 19 14 18 18 17 17   16 17 17 17 15 18 16 17 17 19   14 15 19 17 17 15 19 16 18 19   
 80b  20 17 17 17 18 20 22 20 17 19   21 15 20 21 18 15 20 19 18 22   19 17 19 17 20 17 17 16 21 20   19 19 17 18 18 16 16 17 19 19   
 81a  16 15 15 14 15 18 18 13 17 15   17 15 18 14 15 19 16 14 16 16   14 14 16 16 18 15 17 16 16 16   18 19 15 17 18 18 17 17 16 18   
 81b  15 18 19 20 18 20 18 18 15 18   17 17 18 15 20 19 19 18 18 15   17 16 19 19 14 16 21 18 18 18   22 19 18 21 19 17 19 16 19 17   
 82a  18 14 14 14 18 16 15 15 14 15   13 14 15 15 17 17 17 16 16 16   15 14 16 17 16 16 18 14 17 18   19 15 21 17 19 18 18 18 20 20   
 82b  17 21 19 15 18 17 16 19 19 17   20 18 21 14 21 20 15 18 19 22   20 22 20 18 22 15 19 18 19 15   20 16 23 15 18 20 23 19 17 21   
 83a  16 18 17 15 17 18 15 16 15 16   15 15 18 16 15 17 18 17 15 17   17 16 16 12 19 15 14 16 19 16   18 16 16 16 15 17 17 21 21 19   
 83b  19 14 17 18 19 19 22 20 24 17   20 19 19 19 16 18 21 20 20 17   19 19 19 15 19 22 17 16 17 19   17 20 18 18 15 17 19 17 18 18   
 84a  14 16 19 15 16 17 18 14 17 17   13 13 16 15 14 13 16 15 17 14   19 14 18 18 16 15 15 18 18 17   14 16 16 15 19 19 18 19 19 17   
 84b  18 15 19 19 19 19 15 18 18 19   18 18 18 18 18 18 22 19 18 20   19 18 19 24 18 19 17 19 18 17   21 18 15 19 19 16 16 20 16 15   
 85a  18 16 16 16 15 15 16 14 19 15   17 13 16 15 15 15 15 15 16 16   19 18 18 15 14 19 18 17 15 16   15 15 19 20 20 16 18 16 18 18   
 85b  18 17 20 21 18 19 20 17 20 14   17 18 20 16 18 17 19 18 17 17   19 18 22 18 16 18 16 17 19 20   21 20 19 18 19 18 18 18 20 16   
 86a  15 13 16 12 15 16 18 18 15 16   15 17 15 15 19 16 17 15 16 14   15 15 14 14 16 15 17 16 15 17   16 18 16 16 20 19 15 14 20 16   
 86b  16 16 19 19 17 18 21 17 20 17   18 20 18 18 18 18 20 16 19 18   21 17 22 18 18 17 20 16 19 18   18 20 18 16 19 20 17 17 17 19   
 87a  16 17 17 13 17 12 12 14 16 16   15 15 17 16 14 16 15 15 18 17   16 16 17 16 17 19 18 15 17 16   19 15 20 17 17 19 19 17 17 17   
 87b  20 19 20 19 18 17 22 20 19 18   21 16 20 16 18 18 20 15 18 17   21 15 18 19 20 21 21 19 20 17   17 17 19 18 17 18 16 17 20 18   
 88a  16 15 15 14 14 14 15 18 14 13   16 15 16 15 18 17 18 17 16 16   14 15 19 15 17 17 17 15 13 16   17 16 16 17 19 18 19 21 18 14   
 88b  17 17 15 15 20 21 16 17 17 19   17 21 17 19 18 19 20 16 20 18   17 18 18 18 19 18 20 19 18 17   19 17 20 21 17 17 17 21 18 15   
 89a  17 13 17 17 17 18 18 16 16 15   14 17 17 17 17 16 14 16 19 15   17 17 30 16 14 18 20 13 16 19   19 15 16 16 22 17 22 19 17 17   
 89b  19 19 19 17 18 21 18 20 20 17   16 18 17 19 21 19 22 17 14 21   17 17 17 18 19 18 20 21 18 16   21 17 19 18 18 17 18 15 15 21   
 90a  15 14 15 16 18 15 16 16 16 13   16 15 17 16 15 16 15 15 14 17   16 15 17 16 16 16 17 17 17 14   16 16 19 16 19 17 18 19 16 15   
 90b  16 18 15 15 19 19 19 17 20 16   18 17 20 18 17 30  9 18 21 16   17 17 18 16 21 16 19 17 19 18   21 16 17 19 20 18 17 16 20 19   
 91a  14 18 17 16 14 15 16 15 16 14   12 17 16 14 17 15 17 15 14 16   16 16 16 16 15 14 19 17 19 17   17 17 17 15 17 19 15 19 16 20   
 91b  17 17 16 18 17 22 22 18 20 18   19 18 19 20 20 17 19 17 21 17   19 17 18 19 19 18 22 17 15 18   17 21 16 17 17 20 16 17 19 20   
 92a  17 17 16 16 15 14 15 16 16 12   16 13 15 16 12 15 15 16 16 16   14 15 17 17 18 15 14 15 16 13   14 17 15 15 16 20 18 18 18 17   
 92b  19 20 23 18 18 17 14 17 19 18   18 18 20 19 19 19 19 16 19 19   18 18 19 17 16 15 18 19 17 19   17 20 18 16 18 17 19 18 19 19   
 93a  16 18 13 12 18 15 14 15 15 16   15 15 18 17 13 15 20 14 15 16   16 15 17 18 17 15 15 15 16 20   15 18 16 15 17 17 19 18 16 16   
 93b  19 17 18 16 20 17 19 18 16 20   18 18 18 18 18 19 16 21 19 18   17 19 17 19 18 19 18 18 19 15   18 16 20 19 18 21 16 18 18 18   
 94a  17 16 15 14 16 19 14 15 20 15   17 16 15 14 16 15 19 16 16 16   16 15 17 16 18 16 15 15 14 20   18 18 17 16 16 15 18 18 17 21   
 94b  19 16 18 18 16 16 19 19 17 19   16 18 19 21 21 17 17 17 18 19   16 18 18 19 17 20 17 17 16 19   19 16 16 19 16 16 20 15 18 17   
 95a  18 15 14 14 16 12 16 13 14 13   14 16 17 14 15 18 15 17 12 16   17 15 16 17 16 15 15 15 16 15   15 15 17 17 18 18 20 16 18 19   
 95b  18 18 16 18 17 31 17 18 20 17   19 19 19 18 15 15 19 17 19 19   18 17 18 16 19 15 16 14 19 17   19 19 13 20 19 17 17 17 16 16   
 96a  18 15 16 13 13 16 16 15 15 16   18 15 17 14 17 16 14 18 14 14   15 18 18 17 19 17 16 16 19 19   19 15 17 14 19 17 22 16 17 17   
 96b  21 17 17 15 17 17 19 19 15 18   16 20 17 18 18 18 22 18 15 21   18 17 19 18 20 17 17 18 17 18   21 17 19 20 18 19 18 17 17 17   
 97a  18 16 11 16 15 16 16 14 16 14   15 14 18 17 17 17 17 15 16 16   15 18 15 17 13 19 14 17 16 16   16 15 17 15 18 20 14 19 17 17   
 97b  17 17 19 16 16 18 20 20 18 21   21 16 19 18 17 18 16 20 19 18   19 18 20 17 17 19 19 19 20 21   19 18 16 18 16 20 21 17 16 18   
 98a  12 12 19 13 19 15 16 18 16 15   18 18 17 18 17 14 15 18 16 16   19 15 18 14 19 12 17 16 15 18   16 12 19 17 17 18 18 14 23 16   
 98b  17 17 20 19 18 16 18 17 19 19   16 19 19 17 19 17 19 19 17 18   20 19 19 18 17 17 17 18 16 19   19 18 19 16 29 16 18 17 18 19   
 99a  16 15 14 13 15 16 16 14 17 15   15 15 15 16 16 15 15 17 17 14   18 15 18 18 18 16 17 15 15 16   18 19 17 18 17 21 19 17 17 19   
 99b  17 15 19 19 18 18 19 15 18 16   20 14 19 18 18 21 17 19 18 21   20 16 23 20 18 17 20 17 21 19   17 17 18 19 30 20 19 16 19 16   
100a  15 16 15 16 15 15 16 30  2 17   14 16 15 13 18 13 15 14 16 19   15 17 16 14 13 14 17 17 17 15   18 16 19 19 16 16 17 17 17 19   
100b  20 17 20 17 19 20 20 18 21 17   19 17 19 17 18 18 18 17 18 17   17 17 18 17 18 19 17 19 19 23   19 17 19 19 14 16 19 20 18 17   
101a  14 18 17 16 15 17 16 15 14 14   16 15 19 16 19 13 16 15 18 16   14 16 15 15 15 16 15 15 17 16   18 17 15 15 20 16 15 15 20 18   
101b  20 16 17 16 16 17 19 18 18 18   18 19 21 19 20 20 20 18 16 17   15 19 19 15 22 17 18 19 20 20   19 18 16 20 17 19 22 15 17 17   
102a  16 15 16 16 15 16 15 15 15 16   16 17 18 15 18 16 20 14 17 18   16 16 15 17 16 14 18 18 20 16   19 17 18 20 16 16 16 21 22 19   
102b  17 17 15 20 17 15 20 18 15 15   20 18 19 19 17 17 16 20 22 21   15 17 16 21 21 19 16 19 17 17   19 15 16 16 18 15 18 16 17 16   
103a  13 16 17 15 14 14 16 13 16 19   17 15 19 15 16 15 16 18 15 15   15 14 14 17 17 15 16 17 16 20   17 18 19 16 20 19 18 16 18 17   
103b  21 16 17 20 20 16 18 20 21 22   19 15 15 22 19 20 19 21 17 18   19 19 18 19 17 19 19 16 21 20   15 20 20 18 18 15 18 16 16 17   
104a  12 16 18 14 15 31 14 13 13 17   12 16 13 16 15 15 19 16 18 19   16 16 16 15 16 15 17 15 20 20   17 16 17 15 15 15 19 19 18 15   
104b  18 18 16 19 20 19 15 19 18 18   20 17 19 19 21 19 19 18 23 19   17 18 20 20 20 17 19 18 21 21   21 19 19 17 19 16 19 19 18 17   
105a  17 14 16 28 13 15 16 16 16 19   17 12 19 15 14 16 18 15 17 15   17 16 15 14 18 15 15 15 18 15   17 14 17 19 23 15 15 20 18 21   
105b  19 18 19 18 17 19 19 19 18 18   19 20 19 23 18 17 19 19 16 17   18 17 18 17 19 17 19 18 21 19   18 17 16 18 17 20 18 20 17 18   
106a  11 14 15 18 17 16 13 15 16 14   15 14 16 15 16 15 17 15 14 16   17 18 15 15 16 12 17 15 17 16   16 19 19 18 18 18 19 17 18 15   
106b  21 17 23 18 19 18 21 18 19 18   17 19 19 16 15 18 17 19 18 19   19 18 15 19 19 17 19 17 19 29   17 18 17 20 17 17 19 17 17 18   
107a  17 16 16 17 19 15 18 14 12 14   16 15 16 18 18 15 16 14 19 15   14 13 16 15 14 14 21 12 17 15   18 15 20 16 18 19 16 17 17 17   
107b  16 17 18 16 17 20 17 19 19 20   17 16 19 18 17 18 19 17 18 17   20 16 17 16 16 31 19 19 18 19   19 16 22 18 15 16 19 22 16 19   
108a  14 14 17 16 14 14 15 14 17 13   15 16 16 13 16 16 18 17 17 14   17 19 14 15 16 19 18 15 17 17   18 18 16 19 20 17 17 17 19 16   
108b  16 17 16 20 18 17 17 17 16 18   17 18 17 17 20 18 18 19 18 19   17 20 15 18 18 20 19 18 22 17   17 22 23 17 17 16 19 17 19 18   
109a  16 16 15 14 17 14 19 15 15  3   27 15 17 18 17 14 16 15 16 14   19 14 18 17 17 16 18 14 16 17   19 14 17 18 18 14 16 15 20 17   
109b  19 19 18 19 17 17 19 21 20 18   16 17 18 18 19 19 18 22 19 17   16 17 19 16 18 18 16 16 19 18   20 19 18 18 15 15 16 19 17 16   
110a  15 14 17 15 13 16 17 17 14 14   15 17 15 14 16 15 15 16 17 16   17 14 14 17 12 15 14 17 14 15   17 18 18 17 19 19 18 18 17 20   
110b  16 15 16 18 15 19 20 17 21 19   17 19 19 17 16 17 18 20 22 19   19 17 17 18 18 19 19 17 21 17   20 17 19 19 18 18 17 18 19 17   
111a  14 16 16 15  1 16 15 12 15 15   17 13 17 17 14 16 16 12 19 14   15 16 14 15 16 14 16 14 16 14   17 14 19 17 16 19 16 19 15 15   
111b  18 16 22 19 18 17 17 16 19 17   19 18 18 18 18 17 20 18 18 16   19 18 19 19 16 16 20 19 18 18   21 18 20 16 18 15 19 17 21 16   
112a  17 17 14 13 18 12 18 15 16 13   18 16 15 13 18 14 17 16 15 14   18 15 16 14 18 14 15 14 19 14   15 16 19 16 18 20 17 16 18 19   
112b  17 18 19 16 18 15 20 18 21 18   20 19 15 18 19 20 20 19 18 18   17 16 18 19 17 19 18 18 17 16   19 18 17 18 20 16 17 19 19 18   
113a  15 17 17 16 17 17 18 19 15 15   15 13 18 17 14 16 15 18 19 16   15 15 14 13 18 18 16 15 17 15   17 18 14 15 16 17 20 17 17 14   
113b  17 17 19 19 18 16 19 19 19 18   16 17 19 20 19 19 17 14 19 16   20 18 16 19 20 20 18 18 16 18   19 19 18 19 20 20 17 18 20 22   
114a  16 14 17 20 16 15 17 14 13 15   14 16 16 13 15 14 16 15 16 14   16 14 16 15 15 15 17 16 13 16   16 16 18 15 21 19 17 18 17 19   
114b  18 18 17 17 19 19 19 17 19 21   18 20 17 20 16 17 19 15 18 17   18 15 17 17 19 20 18 16 17 20   16 19 19 20 18 16 19 15 18 18   
115a  15 16 14 18 16 16 17 16 15 15   15 15 14 17 15 15 16 14 15 17   17 16 14 17 15 18 16 15 17 14   18 16 14 15 16 16 16 16 16 16   
115b  18 16 17 18 18 20 20 17 17 17   15 18 17 19 19 17 17 23 20 19   17 17 20 19 16 16 21 14 17 20   19 17 16 21 19 19 20 17 19 19   
116a  12 15 12 15 18 14 15 17 18 14   16 16 18 16 14 13 17 15 16 13   14 14 15 16 17 13 18 13 16 15   16 14 17 15 19 19 18 15 17 19   
116b  20 20 21 18 16 14 19 18 19 21   15 18 22 17 23 18 17 16 18 17   20 18 19 17 18 21 23 17 19 16   19 17 18 19 19 19 18 15 17 17   
117a  15 16 18 13 15 16 15 14 15 14   16 15 17 15 16 16 15 18 17 16   16 16 16 18 15 15 18 18 19 16   16 15 17 17 17 18 18 17 19 16   
117b  18 21 21 15 20 18 18 17 18 19   19 17 18 16 17 16 18 19 19 16   19 17 17 18 17 16 20 17 19 17   19 18 19  9 29 18 16 19 16 16   
118a  17 14 18 15 18 13 15 17 18 17   17 15 17 15 15 18 15 19 16 18   16 13 15 14 18 18 15 16 16 16   16 18 14 19 16 17 17 14 20 16   
118b  17 16 18 21 17 19 18 21 18 18   18 20 17 18 18 17 18 21 18 21   18 18 21 18 19 18 17 19 17 17   17 16 19 16 19 17 19 19 17 17   
119a  19 16 15 13 17 14 18 16 14 14   15 15 16 13 13 15 19 16 14 15   13 16 14 20 16 17 15 16 14 18   15 17 18 17 17 19 18 16 21 16   
119b  15 18 17 21 21 17 17 17 18 19   17 18 18 17 19 18 20 19 16 17   18 17 16 17 18 20 20 18 16 17   16 15 20 19 17 14 18 19 18 21   
120a  16 14 19 19 17 15 14 13 17 13   15 15 14 17 16 14 18 17 15 16   15 19 16 15 13 15 14 18 15 14   18 17 17 14 17 15 16 14 19 18   
120b  17 20 18 17 20 16 19 17 17 31   20 18 18 18 19 15 18 15 20 18   20 20 18 18 17 17 16 18 20 19   18 19 17 19 19 19 17 19 18 18   
121a  17 14 13 14 15 13 16 13 14 14   17 14 15 13 15 14 18 14 15 15   16 17 16 17 16 17 15 13 16 15   18 18 15 16 16 18 17 18 18 17   
121b  19 17 18 16 18 21 16 19 19 18   19 20 21 17 17 19 18 15 22 20   18 17 16 18 21 18 19 17 20 17   15 20 15 19 17 17 17 16 17 20   
122a  15 15 18 13 14 17 18 17 17 16   16 19 15 14 31 19 17 17 15 16   17 16 15 13 16 18 16 15 15 17   16 19 18 18 18 18 16 15 15 15   
122b  18 17 17 17 23 17 17 19 17 15   15 18 20 19 18 20 18 17 19 17   19 18 19 19 19 18 17 16 15 17   19 21 20 17 18 18 17 16 17 17   
123a  16 13 15 17 15 15 17 15 16 14   15 13 16 16 17 15 16 14 16 14   15 15 17 19 16 15 15 13 15 14   14 19 19 18 18 17 18 18 17 15   
123b  17 15 19 16 18 20 18 19 19 18   19 18 19 18 17 20 20 16 18 19   15 17 15 17 19 31 19 18 19 18   17 20 20 16 20 16 20 16 21 17   
124a  17 18 13 15 16 15 14 19 16 16   16 17 17 16 20 16 16 15 16 13   15 15 15 19 17 16 12 14 16 14   17 12 16 17 20 16 20 17 20 17   
124b  16 14 15 17 19 17 19 19 18 15   17 17 20 20 19 15 17 19 17 22   21 17 18 17 20 20 19 16 16 20   18 16 17 17 18 19 20 17 21 17   
125a  15 16 17 15 14 19 15 15 16 15   15 15 15 14 17 18 18 17 18 17   15 15 19 14 16 15 13 15 15 18   17 18 16 16 19 17 17 18 16 17   
125b  20 31 19 18 16 14 19 17 22 16   18 18 21 23 19 18 20 18 17 14   19 16 17 20 18 18 19 19 18 17   19 19 21 18 18 16 18 17 19 18   
126a  14 18 15 15 19 14 16 17 18 18   19 15 21 12 18 14 16 14 15 14   16 17 15 17 15 14 18 17 16 19   16 16 16 16 16 17 19 17 18 19   
126b  19 17 16 17 18 20 19 20 13 16   18 20 18 19 23 16 19 16 19 15   19 19 19 17 19 15 20 20 19 20   16 17 18 17 19 18 19 16 18 16   
127a  17 14 15 15 14 16 14 15 15 15   16 15 18 16 15 19 17 18 15 18   16 17 16 15 18 17 16 16 17 14   16 16 17 18 18 16 18 19 16 16   
127b  19 19 18 17 19 17 20 18 19 20   21 20 19 18 20 17 15 19 17 18   16 16 19 17 17 17 17 19 16 18   20 17 17 16 16 18 19 17 19 18   
128a  16 15 16 16 17 13 16 15 17 16   15 16 13 16 14 14 17 16 17 16   17 17 16 15 19 14 16 15 18 18   20 17 17 15 18 18 16 15 16 17   
128b  17 19 19 17 17 16 20 19 15 18   19 17 19 19 19 18 25 21 16 16   17 18 19 15 18 17 18 18 20 18   15 18 19 19 17 19 18 12 22 19   
129a  19 17 15 13 15 16 16 16 17 12   16 16 15 17 14 14 17 12 19 15   17 16 16 15 14 15 16 13 14 17   14 16 16 17 17 18 19 17 18 17   
129b  17 16 23 18 19 15 21 17 18 20   20 20 20 16 20 17 19 19 18 16   18 19 20 19 15 18 18 19 18 20   16 20 17 18 18 19 18 18 17 17   
130a  16 13 19 14 17 15 15 14 17 12   15 16 15 15 15 16 18 15 16 14   14 14 17 18 14 17 16 17 17 16   15 14 18 19 20 16 19 17 18 18   
130b  19 17 17 17 16 18 19 20 20 15   19 19 19 17 16 20 18 18 14 19   19 14 20 17 20 21 20 15  7 18   19 18 19 15 18 20 17 17 17 19   
131a  18 15 16 17 13 17 14 17 16 13   16 16 15 14 18 16 18 16 16 17   16 17 16 15 17 17 18 17 19 17   19 17 16 17 17 15 18 17 19 15   
131b  18 18 18 19 19 18 16 18 18 19   21 19 17 20 20 18 19 18 18 17   21 16 24 16 23 19 20 19 21 17   20 17 19 16 27 16 18 15 20 15   
132a  18 16 17 14 13 16 16 13 18 14   16 17 18 14 15 17 18 17 16 16   17 14 17 13 16 17 15 16 15 16   18 16 18 15 19 18 17 16 20 17   
132b  19 13 20 19 21 17 16 17 15 17   15 16 17 20 19 17 18 17 19 15   18 19 19 18 19 19 18 18 22 18   17 21 21 20 29 18 19 16 16 18   
133a  17 13 19 13 19 13 18 16 16 15   17 16 17 13 15 19 16 14 15 17   15 15 16 17 13 16 18 17 17 16   15 17 15 17 19 16 22 20 19 16   
133b  17 16 17 18 18 19 17 17 16 18   21 17 18 18 17 18 15 20 19 20   17 17 19 20 20 16 20 20 18 19   19 30 19 18 20 19 15 19 16 20   
134a  15 16 16 16 17 14 17 14 15 12   13 16 15 13 17 15 15 15 16 14   16 16 15 15 18 14 17 16 18 15   19 18 18 17 16 17 17 17 15 16   
134b  17 17 19 19 17 18 17 20 17 16   18 19 19 15 19 19 18 18 15 18   18 17 16 16 19 19 20 17 19 16   20 20 21 19 17 18 20 15 18 18   
135a  16 13 16 15 13 15 15 16 16 15   17 14 16 17 17 16 16 17 17 15   18 16 17 16 16 17 16 16 19 17   16 16 16 12 19 16 19 14 17 15   
135b  19 17 15 16 16 15 20 16 20 16   18 15 17 18 18 16 17 21 18 15   20 18 19 18 15 18 16 17 31 15   19 19 17 17 15 17 20 18 17 17   
136a  14 16 17 12 16 12 17 18 16 16   14 15 14 16 15 13 14 15 19 17   15 16 19 15 15 15 16 16 19 16   17 15 19 16 18 17 14 17 18 16   
136b  20 20 16 18 19 16 15 16 19 18   15 21 22 20 21 19 17 16 20 23   17 18 19 17 19 18 21 17 18 18   18 16 16 18 23 17 16 19 16 18   
137a  13 15 14 17 12 15 15 16 16 18   16 14 16 14 17 16 13 15 17 17   16 15 15 14 17 15 17 14 17 15   18 19 15 15 17 17 17 17 17 19   
137b  19 19 21 15 17 16 20 22 20 17   23 18 17 18 17 17 18 20 21 17   19 18 19 18 16 16 21 20 18 19   20 18 17 18 16 17 19 18 18 19   
138a  17 14 17 16 16 13 17 19 17 14   15 14 19 19 15 14 14 13 15 18   14 30  7 15 18 15 16 18 18 20   17 20 18 17 16 17 15 18 18 16   
138b  17 19 19 20 16 18 21 20 20 17   19 20 19 17 17 19 18 30 20 18   18 19 18 16 18 18 20 17 17 15   15 20 18 18 18 17 19 17 18 21   
139a  15 15 17 15 12 18 14 15 15 17   16 27 15 16 16 15 18 14 13 17   16 18 16 15 17 17 12 17 15 17   18 15 17 17 19 17 20 16 17 17   
139b  17 15 19 17 19 17 16 20 18 18   19 16 19 19 18 18 20 15 21 20   18 17 20 16 18 18 16 17 19 17   18 19 19 16 18 16 16 17 16 20   
140a  15 14 13 15 15 14 15 18 14 15   14 11 17 14 17 19 15 17 14 15   14 15 15 18 16 13 16 18 15 18   14 15 17 16 17 16 16 17 19 17   
140b  18 18 18 20 16 18 18 17 20 15   19 15 19 16 19 22 19 18 19 17   17 18 21 21 18 21 17 16 16 17   19 19 17 20 17 17 20 15 22 17   
141a  14 20 14 16 14 19 17 17 15 16   16 15 16 16 15 16 14 27 16 15   17 15 17 15 19 16 14 15 14 17   18 18 18 14 19 17 17 16 17 15   
141b  19 17 16 20 19 17 18 19 19 17   16 20 18 17 18 21 21 18 17 19   17 19 18 16 18 18 15 18 18 16   22 16 18 18 18 22 20 19 19 16   
142a  14 17 17 12 16 16 15 15 15 16   18 14 14 17 15 17 16 29 18 14   18 15 13 16 18 14 17 14 17 19   19 15 18 18 16 18 17 17 19 18   
142b  18 20 16 19 19 20 20 17 17 16   17 19 17 20 22 18 20 21 20 18   19 17 20 19 19 19 21 14 18 17   20 15 15 17 17 18 19 18 16 19   
143a  15 14 16 18 15 15 16 15 15 14   17 15 16 15 14 16 15 15 17 17   16 15 17 16 13 15 15 16 16 16   18 18 19 17 18 17 16 16 17 19   
143b  18 17 17 18 19 18 18 18 18 19   16 20 17 17 20 19 19 16 18 18   17 17 16 19 18 17 18 17 21 19   16 17 18 17 16 19 18 19 17 19   
144a  17 14 17 17 15 16 19 13 20 15   16 17 14 17 12 15 15 15 17 16   18 16 14 17 15 14 13 14 17 13   16 17 19 16 16 19 17 17 19 16   
144b  18 17 19 14 19 16 16 18 20 19   19 18 20 17 21 18 17 17 19 16   20 17 17 19 20 18 17 19 19 16   18 16 17 18 17 16 20 18 19 15   
145a  19 18 13 12 16 19 17 15 18 14   18 15 16 16 18 16 17 14 16 16   13 15 16 16 18 16 16 17 17 16   17 16 17 16 17 17 19 19 18 20   
145b  19 18 20 18 16 16 17 18 18 16   16 20 20 17 16 18 17 21 18 16   19 17 18 19 19 17 16 15 18 19   17 18 20 17 16 15 16 18 17 18   
146a  16 17 13 12 14 15 15 16 14 14   15 17 16 17 16 16 15 15 16 14   16 15 17 17 14 15 17 17 15 16   18 17 15 17 16 17 16 18 15 14   
146b  17 14 18 21 17 16 17 17 21 19   19 17 18 18 17 20 18 18 20 17   17 20 21 18 19 18 19 16 20 17   16 17 18 20 20 15 16 18 20 18   
147a  17 13 15 15 14 15 20 17 16 16   19 16 15 17 16 16 16 14 16 12   16 15 19 15 18 13 16 13 15 17   17 20 18 17 15 16 18 16 17 20   
147b  20 18 19 17 17 18 18 13 18 18   18 20 19 18 17 21 17 19 19 17   15 18 18 17 19 16 19 18 17 17   18 16 15 19 17 18 17 17 18 17   
148a  16 19 20 16 16 16 19 13 14 15   21 17 17 14 16 16 16 15 15 14   18 15 20 17 18 15 18 15 15 15   15 18 17 17 16 16 18 15 20 20   
148b  16 16 23 17 17 19 18 31 20 16   19 19 17 16 19 18 18 17 20 18   18 18 18 18 16 20 19 19 18 19   16 18 17 20 19 17 19 17 19 20   
149a  19 16 14 16 14 17 17 16 16 14   15 15 16 17 17 15 17 15 17 16   16 14 17 15 16 16 16 18 14 13   18 15 18 14 19 18 20 17 18 18   
149b  16 18 19 15 15 15 18 17 19 18   19 16 31 20 18 17 17 17 18 17   17 19 15 16 20 19 20 16 17 21   18 16 18 15 21 15 18 17 16 19   
150a  17 14 15 14 17 15 14 15 15 17   17 20 15 15 30 16 19 16 15 19   15 13 16 18 17 19 14 15 16 17   15 15 16 15 15 15 19 19 16 17   
150b  16 14 18 17 20 17 19 19 20 18   19 18 21 16 18 17 20 17 19 17   16 18 18 16 18 16 17 18 20 16   16 16 20 21 15 18 21 17 17 18   
151a  15 12 14 18 18 13 13 15 16 15   14 17 16 18 15 14 16 13 15 14   17 17 16 14 16 16 14 15 16 16   18 18 17 18 16 21 17 18 15 16   
151b  18 19 18 17 19 18 19 19 19 18   20 14 16 18 20 20 19 17 20 18   20 21 19 17 18 15 19 15 17 17   21 17 19 18 17 14 20 18 19 17   
152a  19 16 13 15 13 19 17 12 16 18   15 12 15 13 15 13 15 17 15 16   20 15 16 18 15 19 16 14 17 12   17 17 17 18 17 20 17 18 18 15   
152b  21 15 19 20 20 18 21 17 18 16   17 18 19 18 19 16 22 18 21 18   15 17 20 17 17 18 18 17 19 21   15 16 20 18 19 18 18 14 19 20   
153a  15 18 16 15 15 11 15 16 14 15   15 16 19 14 16 18 15 18 14 17   15 16 16 15 16 16 18 15 15 18   16 16 17 19 19 16 20 17 20 16   
153b  17 16 19 18 18 15 17 17 19 15   19 18 19 19 18 18 17 18 19 17   17 17 17 17 16 17 18 18 19 19   15 18 18 18 15 21 19 19 17 18   
154a  16 13 17 14 15 15 16 16 18 16   17 16 15 15 14 18 15 14 15 18   15 14 19 17 18 13 15 14 18 17   17 17 17 15 15 15 20 18 17 16   
154b  16 19 19 16 19 20 17 18 21 19   20 19 17 16 18 18 21 16 21 19   20 18 19 16 20 15 17 18 17 18   17 21 18 18 17 18 19 18 19 16   
155a  16 13 15 14 14 13 15 16 14 16   18 17 17 17 15 15 19 17 17 12   16 17 15 15 19 16 17 16 18 15   17 21 16 17 19 18 15 16 22 19   
155b  17 15 19 21 19 20 21 16 19 17   17 17 17 17 19 18 20 18 17 17   20 19 17 18 16 17 17 23 16 16   18 18 18 18 20 15 19 17 17 18   
156a  17 19 19 13 14 18 14 16 17 13   15 14 17 16 16 16 16 13 19 15   16 16 17 16 18 14 14 16 16 16   15 17 18 13 17 20 19 16 15 19   
156b  19 19 17 20 18 17 19 18 16 18   17 14 20 19 20 16 18 17 20 16   19 20 17 17 17 17 17 17 20 16   17 18 17 18 17 17 15 17 19 16   
157a  16 13 16 18 16 15 16 18 17 18   18 14 16 16 16 18 17 14 16 15   17 15 16 13 15 14 18 16 18 15   21 18 15 16 17 17 19 19 17 18   
157b  18 17 17 17 22 21 20 17 18 20   18 19 20 18 18 17 21 19 19 17   16 17 19 17 23 18 20 17 17 17   19 19 17 16 20 16 17 16 18 16   
158a  15 15 20 14 17 15 17 14 17 15   15 15 18 17 13 15 16 15 15 14   16 17 17 16 16 16 16 17 18 15   15 16 16 18 18 15 29 15 17 17   
158b  19 18 17 17 18 20 16 19 19 20   18 17 21 18 17 19 17 18 17 17   18 17 19 17 17 19 16 17 19 17   20 18 19 17 19 19 16 18 21 18   
159a  17 14 15 15 15 15 16 18 18 17   14 14 15 12 16 15 16 15 17 15   18 15 15 14 18 17 15 15 15 15   14 16 14 15 16 18 16 18 15 17   
159b  19 22 19 18 19 15 20 18 17 17   17 20 20 16 19 18 19 16 17 18   20 17 16 18 19 19 20 19 19 15   20 17 17 16 20 16 19 17 19 17   
160a  16 15 13 13 15 14 16 16 13 16   16 13 16 13 14 15 14 16 18 14   17 15 16 18 13 16 15 16 16 15   13 15 16 16 16 18 16 14 18 14   
160b  17 15 14 19 21 17 21 18 16 17   18 18 18 19 17 18 18 15 18 15   18 18 20 17 21 19 20 19 15 19   17 16 16 18 18 17 20 22 17 19   
161a  14 14 16 15 19 15 16 17 17 15   18 14 15 14 16 15 15 17 16 15   15 15 17 13 15 15 17 17 18 14   17 16 18 15 15 15 19 16 16 18   
161b  18 17 18 18 19 20 17 17 16 17   22 16 21 20 16 17 17 20 20 16   16 17 16 16 19 19 14 17 21 20   21 21 20 17 31 21 18 15 19 16   
162a  17 15 17 15 17 12 13 14 16 16   16 17 17 15 14 16 15 16 16 17   16 15 19 15 16 14 17 14 16 18   16 16 17 19 18 15 18 17 20 16   
162b  17 17 17 17 16 21 19 17 14 19   18 17 16 17 17 19 15 19 17 21   20 19 21 15 17 15 20 20 19 16   19 19 20 19 22 17 19 18 16 16   
163a  18 19 17 16 14 14 16 15 15 16   15 15 16 16 18 15 15 14 16 15   18 15 15 16 17 16 16 14 16 16   15 16 15 18 15 14 13 14 21 15   
163b  16 16 16 15 15 18 19 17 16 17   17 19 19 18 19 19 17 17 15 17   18 21 19 17 18 19 20 15 18 19   19 17 18 22 14 17 21 17 18 20   
164a  20 15 17 16 16 15 14 12 15 14   15 14 15 15 17 15 16 13 15 15   18 14 13 16 19 16 17 15 17 15   15 15 14 19 19 16 17 16 18 14   
164b  18 16 16 13 15 18 18 17 18 17   18 17 16 17 17 18 20 17 21 18   17 30 17 17 17 20 19 16 18 19   18 16 16 17 18 16 20 20 17 18   
165a  17 15 18 14 14 16 18 17 17 15   16 19 16 16 18 13 18 16 15 16   14 16 16 18 15 15 15 18 17 18   18 17 19 17 17 17 18 16 18 17   
165b  18 20 18 17 20 15 17 17 17 18   17 17 18 19 19 17 16 16 19 20   16 16 18 15 16 14 19 17 19 18   18 17 19 15 17 18 15 17 18 19   
166a  17 15 15 13 17 18 17 16 15 15   13 16 16 19 17 15 16 16 17 16   16 15 16 15 15 17 14 15 15 16   15 15 18 15 15 18 14 18 20 15   
166b  18 19 17 17 20 19 21 19 17 20   14 17 17 17 19 17 17 15 17 17   19 15 18 20 22 17 18 20 18 18   15 18 18 18 18 17 19 17 18 17   
167a  15 13 16 15 19 19 15 14 17 15   16 16 16 14 17 15 18 15 19 18   17 15 18 14 15 14 16 15 17 16   16 16 17 15 17 17 17 17 17 19   
167b  16 22 17 18 19 18 18 16 19 19   17 18 19 19 20 18 23 16 20 16   18 17 19 17 15 17 20 15 18 20   18 18 19 17 18 18 15 19 18 18   
168a  16 12 15 17 15 17 16 17 12 16   13 17 15 17 13 15 15 15 16  5   29 19 15 17 14 16 16 16 15 16   17 17 16 15 16 17 18 16 18 20   
168b  18 16 20 21 17 31 19 19 17 20   17 20 15 17 16 17 18 18 17 18   16 20 18 19 16 18 18 18 17 17   20 15 16 15 18 17 19 18 20 19   
169a  16 15 18 16 15 15 15 15 15 15   16 18 16 15 15 17 16 15 16 15   19 18 15 13 14 30 16 19 17 14   17 15 16 15 16 18 20 14 18 18   
169b  20 17 21 17 19 19 18 18 17 16   18 18 15 20 19 19 20 16 19 17   18 15 17 17 22 19 17 20 20 17   17 17 18 15 16 18 16 18 18 18   
170a  16 17 14 14 17 13 16 15 19 15   16 16 15 15 16 17 14 29  6 17   16 15 13 17 17 16 17 15 18 16   17 13 17 14 18 19 21 16 19 16   
170b  20 16 19 19 17 15 21 19 18 27   17 17 18 19 21 22 17 18 20 19   20 15 17 14 16 17 17 20 18 18   19 18 15 29  7 16 19 17 17 20   
171a  14 16 16 16 17 18 16 14 16 15   15 16 16 15 14 15 16 13 21 16   15 16 15 31 15 16 17 13 13 17   15 17 15 16 16 16 18 18 18 18   
171b  19 17 18 18 19 17 31 16 19 19   19 16 19 21 19 20 19 21 20 15   15 18 16 19 17 20 17 18 17 19   17 16 15 15 21 17 18 16 17 19   
172a  14 15 15 14 20 14 15 12 15 14   16 16 14 16 17 15 16 16 16 13   16 14 16 19 15 16 15 15 18 19   16 14 18 15 17 16 16 16 16 19   
172b  17 19 18 15 18 16 18 18 19 18   21 16 18 19 16 18 17 17 18 16   19 19 16 17 19 18 18 17 20 15   17 18 18 17 16 16 16 17 19 19   
173a  15 16 17 17 16 15 14 17 17 13   12 14 19 17 16 15 14 15 17 15   16 17 16 14 15 18 18 17 14 18   19 17 14 18 18 15 13 15 16 19   
173b  16 17 19 18 17 19 17 19 16 16   17 17 16 18 18 17 20 18 20 19   20 17 19 15 19 17 17 19 16 16   16 19 14 16 18 19 19 15 17 18   
174a  13 16 23 15 14 17 19 17 17 18   15 17 19 14 16 16 15 18 18 17   16 14 17 13 15 15 14 17 14 16   13 18 18 18 18 16 19 19 16 18   
174b  17 15 18 16 21 18 20 19 18 19   20 19 18 16 17 19 17 18 18 18   19 18 19 16 17 18 18 17 19 19   19 17 14 19 18 18 18 18 16 17   
175a  20 17 16 13 15 14 15 17 16  6   15 16 15 18 18 17 17 14 16 14   17  5 30 14 13 14 16 16 17 14   15 19 14 14 15 15 17 17 18 18   
175b  16 19 17 18 17 19 20 16 17 16   17 19 18 19 21 16 18 17 16 16   18 16 20 15 20 21 20 17 20 18   17 15 18 15 18 17 20 19 17 19   
176a  15 15 18 14 16 14 15 17 15 17   15 14 13 16 15 16 14 15 13 16   17 14 15 29  5 14 15 15 18 14   21 15 20 16 20 15 16 17 18 16   
176b  18 14 19 14 22 17 18 19 18 18   17 19 18 19 19 20 18 19 18 16   19 17 18 17 19 15 18 17 17 19   18 18 17 15 16 15 19 18 19 16   
177a  15 15 17 14 15 17 16 16 14 15   17 14 13 17 16 29 14 15 14 15   16 14 18 18 18 15 15 14 17 15   15 18 15 15 18 17 17 18 19 15   
177b  14 18 19 15 19 18 18 17 19 21   17 18 21 19 19 20 19 18 17 17   17 19 16 16 31 17 17 17 16 15   17 17 15 16 19 17 19 17 17 18   
178a  19 17 16 14 14 15 15 16 16 15   15 14 14 16 18 15 14 15 14 19   16 16 14 16 15 15 18 15 17 16   18 17 18 17 21 18 16 17 20 15   
178b  16 16 17 16 19 14 18 19 19 19   19 19 21 18 17 18 16 19 18 15   15 18 17 16 20 19 17 20 17 17   18 17 19 20 20 18 20 17 19 19   
179a  15 17 11 14 21 16 16 16 17 15   14 16 16 17 17 15 15 15 16  4   31 16 16 15 14 17 15 16 15 13   17 15 16 17 19 19 19 19 19 17   
179b  17 17 18 18 18 19 15 20 16 18   17 15 16 16 18 18 18 18 18 17   20 18 18 18 18 17 17 19 17 17   19 15 19 18 16 17 20 18 19 20   
180a  15 15 16 17 11 17 18 12 13 11   16 16 15 13 16 19 17 17 14 16   17 14 23 15 15 14 16 16 16 18   15 17 17 17 20 18 15 18 19 17   
180b  17 19 19 16 17 19 17 19 18 20   20 17 17 28 18 16 19 22 19 15   17 20 20 17 19 26 18 17 18 18   18 17 19 16 18 16 15 17 19 19   
181a  15 20 15 16 16 15 19 16 16 17   13 16 14 16 18 15 14 14 14 12   18 16 31 16 14 15 15 17 18 18   17 18 15 15 19 16 20 17 15 17   
181b  19 18 16 18 20 16 17 17 19 15   19 20 17 16 16 18 16 17 21 19   16 18 15 18 16 21 19 15 17 20   19 15 17 17 15 17 17 18 16 15   
182a  16 16 19 15 18 15 16 16 18 19   17 16 14 15 14 18 16 19 17 16   17 14 19 15 17 16 20 15 15 18   16 15 19 19 17 22 21 15 16 16   
182b  19 17 17 20 21 19 16 22 16 18   17 18 15 20 16 17 16 15 16 17   21 16 19 15 19 17 18 17 15 19   17 18 19 17 15 16 17 19 18 15   
183a  16 16 16 15 19 17 15 17 17 15   16 19 17 14 13 18 16 17 16 16   16 17 16 15 16 16 15 17 14 15   16 15 15 18 18 16 23 15 17 17   
183b  16 16 18 17 21 19 17 19 16 18   17 14 18 19 17 21 17 19 18 19   19 19 18 19 18 16 18 17 18 17   16 18 18 15 21 18 16 18 15 20   
184a  13 17 16 14 18 17 14 17 15 15   15 17 17 17 17 16 16 14 17 15   16 17 16 17 18 18 13 14 16 15   17 17 16 15 17 16 17 16 17 19   
184b  18 13 18 18 17 18 17 19 18 16   21 15 15 16 19 21 14 17 18 18   19 17 19 15 19 16 17 17 19 19   19 16 19 17 17 19 19 17 21 16   
185a  15 17 17 14 13 15 15 14 17 17   16 17 13 15 30 15 15 16 15 13   17 16 14 16 15 13 14 15 17 15   19 17 13 15 17 19 19 15 17 16   
185b  18 17 18 19 22 18 17 19 18 20   17 15 17 15 22 19 31 16 17 18   15 18 16 14 17 17 20 20 17 16   18 16 18 16 15 18 17 18 20 19   
186a  12 15 15 14 18 15 16 12 17 15   14  3 27 16 16 17 17 13 14 16   18 13 16 14 16 15 15 16 14 16   18 17 20 19 17 17 21 17 19 17   
186b  18 18 17 15 18 16 18 18 22 18   17 15 19 18 19 17 20 17 15 20   21 20 17 17 15 17 17 16 17 17   18 19 18 16 20 15 17 21 16 18   
187a  14 20 17 20 14 16 15 15 18 14   16 15 15 11 16 15 15 15 16 17   17 16 19 13 16 16 16 16 14 15   16 18 19 16 15 18 17 17 17 18   
187b  21 18 18 17 18 17 15 18 16 17   16 19 20 17 17 17 18 17 17 16   18 19 20 15 20 16 18 19 17 16   19 16 18 18 21 15 17 15 19 14   
188a  17 15 14 18 15 14 15 16 16 16   18 16 15 15 17 15 17 18 14 16   15 16 16 15 17 19 17 17 16 18   19 16 18 16 16 19 18 17 17 18   
188b  18 19 15 16 17 18 19 19 18 17   17 19 20 15 18 16 18 16 18 18   20 18 17 19 21 17 16 18 20 14   19 19 16 18 16 13 19 17 18 20   
189a  15 16 14 16 15 16 16 18 15 14   19 15 17 17 14 16 14 15 13 17   15 15 16 17 17 13 15 16 15 17   17 16 15 15 15 18 17 20 21 16   
189b  17 18 20 21 19 16 16 17 20 19   20 19 19 18 19 19 20 19 17 17   18 16 18 16 20 19 19 20 17 20   15 17 16 20 20 17 17 19 17 18   
190a  14 14 14 15 13 16 18 15 16 17   16 14 15 11 19 14 14 15 15 15   17 18 17 15 15 16 15 16 17 16   16 18 16 16 17 20 16 15 16 15   
190b  17 15 20 16 16 18 18 17 16 17   21 19 19 20 17 17 19 17 18 14   16 18 19 16 18 17 15 19 18 19   15 17 19 16 18 15 19 19 17 16   
191a  17 19 17 16 17 14 17 17 15 17   17 15 15 13 16 17 12 13 15 15   15 13 16 12 15 17 17 16 17 16   17 17 15 16 18 16 16 20 16 17   
191b  17 17 17 15 15 19 18 17 19 21   18 18 20 16 16 19 17 18 17 16   16 15 18 15 17 16 15 19 17 16   21 14 19 17 15 16 17 16 18 16   
192a  16 15 15 15 16 14 14 15 15 15   17 17 15 15 14 12 16 13 30 15   14 15 17 18 15 14 18 14 14 15   14 14 14 14 15 14 15 16 17 19   
192b  19 16 15 19 18 19 16 20 17 21   19 17 18 17 19 17 17 15 18 17   18 15 17 17 18 21 16 17 18 18   17 16 18 19 16 17 19 17 19 18   
193a  16 14 16 13 13 14 18 15 16 19   15 13 16 15 17 18 17 15 17 15   19 12 15 16 16 17 12 17 16 18   16 20 17 19 18 16 23 18 16 17   
193b  21 15 15 19 18 16 15 19 19 16   19 19 19 17 18 17 18 16 17 19   18 17 17 16 19 19 21 19 17 18   17 17 17 16 19 17 14 20 18 18   
194a  17 15 14 16 19 10 13 15 17 14   15 18 17 17 14 15 18 19 14 15   15 13 17 19 16 17 12 14 15 17   17 11 18 15 16 18 17 19 20 19   
194b  19 16 17 19 19 19 19 18 19 16   15 20 18 18 17 17 17 17 20 18   21 17 15 18 17 18 20 17 18 19   16 17 19 18 15 16 15 17 19 17   
195a  14 15 16 15 16 15 16 16 15 15   19 14 14 15 16 15 14 16 15 14   15 16 15 17 16 15 18 20 20 16   18 18 15 16 19 17 21 16 19 19   
195b  18 18 18 19 16 14 19 15 15 20   21 18 17 19 15 17 17 15 17 17   18 18 18 20 18 17 17 20 19 18   19 16 19 18 18 16 18 17 15 14   
196a  16 15 13 13 16 16 16 17 17 15   17 16 16 17 15 15 17 13 15 14   16 31  5 15 15 16 16 16 17 18   15 15 13 17 16 17 16 20 16 18   
196b  18 16 31 17 20 16 16 15 30 16   16 17 17 18 16 16 17 16 19 18   19 19 16 21 18 17 21 18 17 19   20 17 19 17 20 16 20 19 16 17   
197a  17 15 15 12 17 15 13 14 14 18   15 17 15 16 17 14 15 14 18 17   18 17 18 14 18 13 13 18 14 14   19 15 14 14 14 17 17 20 18 17   
197b  18 18 19 17 19 15 19 18 18 16   18 16 18 15 17 16 16 17 18 12   17 15 18 18 15 19 19 18 17 19   19 17 19 18 20 18 19 15 17 18   
198a  13 14 19 14 11 17 16 14 13 15   17 18 15 17 16 14 13 16 16 17   16 16 16 14 15 14 16 18 16 15   15 13 14 15 13 19 18 18 17 19   
198b  21 15 17 17 19 17 17 19 18 17   18 17 21 15 17 17 19 19 15 17   19 17 17 20 18 18 18 19 22 16   19 19 21 16 20 18 19 18 19 15   
199a  16 14 16 16 15 14 16 16 16 15   17 15 13 16 19 14 15 17 30 13   17 18 16 14 15 16 18 18 16 15   19 17 19 16 17 17 17 19 17 18   
199b  18 19 19 19 18 18 19 17 17 16   18 16 17 16 19 16 17 16 17 15   18 19 18 16 17 17 18 19 16 15   18 18 18 17 18 18 19 17 20 17   
200a  14 15 18 14 16 16 19 18 16 19   15 16 17 16 15 13 19 19 15 14   15 15 14 15 15 15 13 15 16 13   15 17 16 14 19 15 17 19 19 15   
200b  18 17 17 19 19 16 19 16 19 19   17 18 17 22 16 18 18 16 17 18   16 16 18 17 21 18 18 16 18 14   17 14 20 16 16 18 16 19 16 17   
201a  17 16 15 14 15 17 14 15 13 16   15 16 17 15 17 14 17 17 15 17   14 13 14 13 15 15 17 14 17 16   16 14 17 15 17 17 16 17 17 16   
201b  15 20 17 17 18 19 17 18 18 16   20 17 18 19 18 19 18 14 17 16   16 15 16 19 17 18 21 16 16 17   18 17 16 19 19 16 13 17 21 19   
202a  16 14 15 16 16 18 14 16 14 15   17 17 15 16 16 13 17 16 18 15   17 17 18 13 16 17 18 13 15 15   14 14 14 19 19 16 16 13 29 17   
202b  18 19 17 18 17 16 19 21 19 15   18 19 16 16 19 15 18 17 19 15   19 18 22 19 21 14 20 17 17 18   17 14 18 18 20 21 18 16 16 16   
203a  15 16 18 15 15 14 14 14 12 15   13 19 16 18 17 16 16 13 16 16   15 17 14 16 16 16 15 15 19 17   17 16 17 17 18 14 17 17 18 15   
203b  17 16 16 19 18 18 18 16 17 17   19 17 16 15 15 18 23 15 20 16   19 17 19 18 17 20 18 16 18 18   17 16 16 18 31 16 15 14 18 19   
204a  15 18 15 15 20 13 16 15 15 17   15 14 15 15 13 13 15 17 16 17   14 15 16 16 16 14 16 16 17 15   19 19 16 13 14 16 16 16 18 17   
204b  21 18 19 16 15 16 17 18 19 20   18 17 13 18 16 16 18 17 18 18   18 18 17 15 20 15 21 17 17 18   18 18 19 16 19 17 17 18 21 17   
205a  15 14 17 16 14 15 14 13 15 14   17 15 17 17 16 16 17 15 16 16   13 15 19 15 18 16 17 15 15 14   16 14 17 16 31 17 19 17 20 18   
205b  21 17 21 15 18 18 18 16 16 16   20 15 22 18 17 17 19 18 15 16   17 17 15 16 18 18 15 17 19 18   17 16 20 14 18 19 17 17 18 18   
206a  16 16 17 17 13 16 17 15 17 15   15 14 19 18 13 17 15 15 18 15   14 17 15  8 28 14 17 17 15 14   17 15 17 15 19 16 20 17 19 16   
206b  16 15 19 21 20 16 16 18 18 17   20 17 18 19 20 14 17 17 19 16   19 16 17 15 16 18 17 16 18 16   15 19 15 19 15 16 19 16 19 18   
207a  14 15 15 20 15 15 13 17 16 13   13 13 15 16 19 15 16 15 15 20   16 16 15 15 31 15 16 15 16 15   19 15 17 15 22 19 18 18 17 14   
207b  19 18 18 17 17 18 20 18 20 20   17 19 16 16 17 16 17 16 18 14   16 17 17 19 16 15 17 18 19 31    6 18 18 18 16 18 16 18 14 19   
208a  16 15 19 18 18 13 13 15 14 16   15 14 16 16 15 14 15 15 16 16   16 13 19 12 15 16 14 17 18 17   15 15 17 15 16 19 21 17 17 17   
208b  21 19 17 16 18 19 17 21 17 19   15 17 19 18 19 17 18 16 14 17   19 15 19 17 14 17 19 17 18 19   18 18 17 16 18 18 17 18 19 19   
209a  16 16 15 14 13 16 18 14 19 15   14 16 13 15 16 15 17 14 13 17   15 14 16 15 18 16 13 14 16 15   17 17 16 15 17 20 18 15 31 19   
209b  17 18 17 16 20 17 20 17 20 21   20 16 20 18 16 18 17 18 18 19   16 16 16 20 16 19 18 17 17 18   17 18 17 17 18 15 15 17 16 16   
210a  15 14 16 15 16 17 13 17 16 15   15 16 15 16 14 18 14 14 16 15   15 16 15 14 16 18 15 13 14 19   15 15 16 15 17 15 18 18 17 17   
210b  17 19 16 17 16 15 18 20 16 17   20 18 19 17 17 18 19 17 18 14   19 16 17 18 19 19 15 19 19 20   17 18 19 19 19 15 18 17 18 16   
211a  14 16 20 14 15 17 15 15 18 15   14 16 16 16 15 15 16 16 15 15   16 18 14 16 17 13 18 15 19 20   18 16 18 15 16 15 16 17 17 16   
211b  16 17 17 14 21 16 19 18 18 20   17 17 19 19 17 16 16 16 18 16   18 15 17 17 16 18 16 17 18 16   18 17 17 18 20 19 17 16 18 15   
212a  18 16 12 17 16 14 16 17 15 15   16 15 16 14 16 15 12 14 17 17   13 15 17 17 15 16 16 18 14 15   16 17 15 17 17 19 17 15 18 17   
212b  17 17 17 18 16 18 18 18 17 16   18 17 16 17 20 15 15 19 19 17   18 15 18 17 19 15 17 17 18 15   19 17 16 20 15 17 17 18 18 16   
213a  17 16 16 13 17 14 14 11 16 17   16 12 16 16 15 14 18 14 14 15   14 16 15 14 16 15 15 14 16 15   19 18 19 17 17 13 17 15 19 17   
213b  18 15 18 17 15 20 18 17 17 17   18 17 16 19 19 17 15 17 16 16   17 18 17 17 16 17 18 21 17 16   18 14 20 16 18 20 17 18 18 15   
214a  15 18 18 15 18 18 18 18 16 16   15 15 16 15 16 16 16 14 12 16   16 15 15 16 14 14 16 15 15 16   13 16 15 17 13 16 15 17 18 18   
214b  21 15 18 18 16 18 21 17 21 16   19 18 20 19 19 15 16 15 21 20   14 18 20 18 17 17 18 16 20 17   19 18 18 17 19 17 18 17 18 14   
215a  17 15 21 18 19 14 17 15 15 15   17 17 15 15 19 12 16 18 18 14   14 15 20 17 13 15 15 13 16 16   18 15 17 13 14 16 16 16 16 19   
215b  17 16 15 21 19 18 20 19 19 18   18 17 20 18 18 15 17 15 17 18   16 18 15 14 17 17 20 18 17 16   19 15 15 21 18 18 16 15 17 20   
216a  13 18 16 15 14 16 17 14 16 15   13 17 14 20 13 14 16 15 15 14   16 13 15 14 16 17 20 16 13 17   18 12 18 19 18 21 17 19 14 18   
216b  16 18 16 19 16 17 16 18 16 17   17 20 19 17 19 18 19 18 19 18   18 16 18 16 17 18 20 17 19 20   19 21 19 18 18 16 17 15 15 22   
217a  14 13 17 17 17 14 16 18 13 15   14 15 14 15 15 16 14 13 16 16   17 15 18 13 17 15 14 18 17 15   15 15 15 15 15 16 16 17 18 18   
217b  14 15 16 16 19 19 19 15 18 20   21 18 19 16 16 17 18 17 17 17   17 14 15 17 19 17 17 16 16 15   17 20 18 18 16 17 17 17 18 17   
218a  20 15 16 15 19 15 14 16 17 14   16 15 17 15 15 15 11 13 16 16   17 16 19 17 13 16 14 16 13 18   17 18 16 17 17 17 15 14 16 16   
218b  18 19 17 19 19 13 16 16 19 16   17 19 16 15 17 17 19 16 18 16   17 15 17 15 16 18 19 18 19 18   20 16 19 17 17 16 19 17 19 20   
219a  14 12 17 16 18 16 17 15 14 19   12 14 18 17 15 14 17 13 17 15   15 15 16 20 13 12 16 16 15 16   17 14 16 16 17  3 18 20 19 17   
219b  16 16 18 19 18 16 16 17 17 17   16 15 19 17 17 16 19 17 16 16   18 19 17 18 18 17 16 17 19 19   15 16 18 17 19 18 17 15 17 19   
220a  15 15 18 15 15 16 15 17 16 15   17 19 18 14 14 15 13 15 17 13   14 17 15 16 15 14 12 18 15 15   18 14 13 19 15 14 18 17 17 16   
220b  16 13 18 17 20 17 16 17 20 17   17 17 18 15 17 30 18 16 18 24   19 17 19 18 19 16 17 18 19 16   16 16 18 19 21 17 18 16 16 17   
221a  18 16 15 16 17 13 15 15 13 16   13 14 16 13 17 19 16 15 18 14   15 15 15 18 16 15 15 16 16 16   16 16 16 15 15 15 17 17 16 18   
221b  17 13 18 16 19 14 20 17 19 19   18 19 20 19 18 17 17 17 15 18   19 20 17 20 19 17 18 18 17 17   15 17 22 15 18 19 20 17 18 17   
222a  16 16 17 16 16 14 14 14 14 14   16 15 15 17 17 13 13 13 15 16   14 14 15 14 15 17 14 17 17 14   14 15 14 15 15 17 13 19 17 18   
222b  16 16 17 16 19 17 18 17 15 21   20 19 21 15 16 17 18 19 16 17   17 18 18 16 21 15 18 19 16 14   18 17 18 17 16 16 18 18 18 18   
223a  14 14 15 18 17 14 16 16 18 15   16 15 14 16 17 14 18 16 15 15   17 14 14 13 16 30  3 16 16 17   14 16 15 14 16 17 14 16 17 15   
223b  17 15 18 15 18 17 18 18 15 17   17 15 16 19 20 18 18 19 18 19   17 18 18 16 17 17 13 17 21 19   18 15 17 15 16 17 19 30 18 18   
224a  16 14 15 12 17 16 16 14 16 11   16 16 12 16 17 14 15 14 16 17   16 15 15 16 18 18 15 13 19 16   15 17 14 17 18 18 18 17 19 17   
224b  17 17 17 15 17 17 17 19 17 17   20 19 18 17 18 19 16 15 20 16   17 19 16 20 16 17 18 17 17 15   17 18 19 20 16 18 18 18 17 18   
225a  16 14 15 16 15 17 15 14 13 30    5 16 17 14 16 15 16 14 13 17   31 17 15 16 17 13 17 16 15 17   13 12 14 19 17 17 16 18 19 16   
225b  16 17 21 18 30 17 16 17 20 16   20 20 20 18 17 17 17 20 16 18   18 20 16 17 17 19 17 18 21 16   16 16 17 21 15 16 20 21 16 16   
226a  15 13 16 15 17 17 14 16 16 16   17 17 19 14 16 15 15 14 16 14   15 17 15 16 15 15 16 16 13 19   17 14 19 16 16 18 19 17 15 16   
226b  16 16 17 17 20 18 15 20 17 16   19 18 16 20 19 17 21 17 16 18   22 19 19 19 20 17 15 18 17 17   15 16 17 13 18 21 18 16 17 17   
227a  16 15 13 16 18 16 16 15 17 18   16 18 17 16 16 14 15 13 18 18   17 13 18 15 15 14 15 16 14 14   19 16 16 16 17 17 17 19 17 16   
227b  18 17 18 16 18 13 16 18 18 15   17 19 18 15 18 19 16 18 16 15   15 19 17 19 16 18 21 18 18 17   15 15 18 15 18 18 13 16 19 16   
228a  17 16 17 13 17 15 15 19 17 14   15 15 16 15 14 17 14 16 15 16   15 18 16 14 30 16 17 16 17 14   17 15 17 19 17 17 16 19 17 18   
228b  18 15 15 17 18 18 16 17 21 17   18 17 18 19 17 18 21 19 19 17   17 21 17 15 17 19 16 16 18 16   19 17 18 18 16 14 18 20 17 20   
229a  14 14 15 15 15 16 17 17 14 18   15 15 15 14 16 17 17 17 16 15   13 14 16 15 15 15 16 17 16 18   19 18 16 15 18 19 17 19 19 16   
229b  17 16 17 20 19 18 18 16 20 17   19 16 17 15 19 17 17 15 18 16   17 16 26 17 17 16 19 19 16 17   17 18 19 17 17 18 18 16 16 17   
230a  14 15 16 12 16 17 14 17 13 12   16 13 15 16 17 14 16 14 18 17   13 15 17 16 16 18 19 17 15 16   16 14 15 15 15 16 15 16 16 16   
230b  19 17 17 16 18 19 18 18 17 18   20 17 20 31 17 16 17 16 16 15   17 17 18 15 16 19 17 17 17 17   16 17 19 18 16 18 15 20 16 18   
231a  19 17 16 15 15 13 13 14 17 12   17 17 17 15 16 15 18 15 16 14   17 16 14 15 18 19 15 16 31 15   18 16 15 17 15 16 17 20 15 15   
231b  16 15 21 17 17 21 21 19 17 17   18 18 19 27 18 17 17 18 17 17   18 17 16 19 19 15 17 20 17 18   16 18 16 16 19 16 16 18 19 16   
232a  16 14 15 15 14 15 15 17 15 15   16 15 15 16 16 15 17 16 15 15   15 14 17 18 19 17 16 18 15 15   18 14 15 17 19 15 18 17 16 19   
232b  17 13 19 16 18 16 18 16 22 21   17 17 17 19 16 18 20 29 16 17   17 19 20 18 17 19 17 17 16 15   17 16 18 16 18 15 19 19 17 18   
233a  16 18 14 15 15 15 17 16 14 12   14 15 15 15 16 16 16 15 16 16   16 16 17 16 15 15 15 16 29 19   16 14 13 17 17 18 15 18 16 18   
233b  17 17 20 19 15 16 15 16 18 17   17 17 17 19 19 16 20 18 18 15   18 18 16 19 18 18 19 15 19 12   17 17 18 16 15 18 15 17 17 16   
234a  15 17 17 12 13 16 16 14 14 12   16 15 15 15 16 16 14 13 18 13   30 13 18 17 14 17 18 15 16 17   16 17 15 15 16 16 19 18 16 17   
234b  17 15 20 19 16 15 19 18 20 18   19 17 20 18 16 16 19 15 19 19   18 16 19 16 17 20 19 16 22 20   16 17 18 18 17 16 17 17 15 16   
235a  16 16 18 14 16 14 15 14 14 14   13 15 17 14 16 18 15 16 14 16   19 16 14 14 16 14 16 17 15 15   15 19 17 16 19 16 16 18 16 17   
235b  18 18 16 18 19 17 15 18 16 16   17 16 21 16 19 18 16 15 17 16   17 16 17 14 17 16 21 15 15 15   18 19 18 15 17 17 15 15 17 17   
236a  18 14 17 16 15 13 15 11 15 15   13 14 14 14 17 15 16 16 14 14   15 13 14 13 17 17 12 17 16 17   17 15 14 17 17 16 14 17 19 16   
236b  17 16 19 17 15 16 19 19 21 20   17 18 31 16 19 19 15 15 14 16   20 18 19 19 20 16 18 18 19 15   14 18 19 19 18 16 17 16 17 15   
237a  15 15 15 16 15 15 17 16 15 13   14 13 15 15 16 15 14 16 14 14   14 16 12 14 17 16 15 16 17 11   20 15 16 17 15 15 16 15 17 14   
237b  17 19 18 17 16 14 17 17 19 18   16 17 20 15 18 15 18 16 14 17   19 17 15 17 17 18 14 21 17 18   17 16 19 15 18 15 18 17 17 16   
238a  17 17 14 14 18 13 14 12 17 16   16 15 19 16 14 13 15 12 16 13   16 14 17 17 17 14 15 15 14 17   18 15 14 15 16 17 19 16 20 16   
238b  16 16 19 19 20 14 18 17 17 19   14 16 17 18 18 14 16 17 17 17   17 17 15 17 21 18 17 16 18 16   17 15 19 17 16 15 18 15 19 18   
239a  15 13 16 16 17 12 16 17 16 13   14 15 17 16 14 16 16 16 16 13   14 14 14 15 13 14 18 19 17 14   16 17 19 16 18 16 15 15 15 19   
239b  18 16 19 16 17 17 16 18 18 17   16 18 19 15 15 16 18 20 20 16   17 17 17 15 17 16 19 15 15 17   19 17 16 19 17 16 17 16 17 17   
240a  16 15 15 17 15 14 15 15 15 16   18 12 16 15 17 15 15 14 13 14   18 17 31 20 14 16 17 17 15 15   13 16 17 17 17 17 20 18 15 17   
240b  16 15 19 18 16 15 16 16 18 17   18 16 16 17 17 16 16 16 17 17   14 17 15 14 18 16 18 18 18 18   17 15 18 14 17 17 19 17 17 17   
241a  12 14 13 15 15 11 14 14 16 17   17 15 25 16 15 16 14 12 13 16   16 14 16 12 17 16 14 16 19 17   15 16 22 17 21 17 18 16 15 17   
241b  20 16 19 17 19 16 19 20 15 16   17 18 20 19 16 14 15 15 16 15   15 15 18 17 17 17 17 16 20 14   17 19 17 17 19 16 18 17 16 18   
242a  15 14 17 15 16 16 15 14 16 14   14 16 16 15 15 15 15 12 13 18   15 14 14 18 16 17 16 13 15 13   16 13 18 15 15 15 19 13 18 19   
242b  23 15 19 17 19 16 22 18 17 18   19 18 18 14 19 17 18 17 19 16   18 20 16 15 17 16 17 16 15 17   18 17 15 16 17 16 15 17 18 14   
243a  17 14 17 15 16 14 17 14 14 12   16 15 16 15 18 17 17 12 16 20   16 15 17 15 16 15 15 13 16 17   18 16 16 15 15 15 14 18 20 17   
243b  16 15 16 16 17 15 15 20 18 16   19 19 17 16 19 18 15 18 18 17   17 16 18 15 20 13 16 19 17 14   17 18 18 17 17 17 19 15 16 16   
244a  17 14 17 15 13 15 17 14 15 13   14 16 17 15 14 15 15 18 13 16   17 16 16 17 17 17 17 18 16 14   16 15 17 13 17 15 18 16 17 18   
244b  19 19 17 20 16 18 18 18 17 19   17 15 17 16 16 18 15 15 18 16   17 16 21 15 18 19 17 19 15 17   15 16 19 15 18 17 14 15 17 19   
245a  15 17 16 19 15 16 15 16 19 19   13 16 16 16 14 16 15 15 21 17   15 13 14 15 13 17 16 13 15 13   14 16 16 16 17 18 18 19 16 14   
245b  18 17 17 17 19 18 19 15 17 17   20 18 16 16 18 18 15 17 17 18   17 15 15 17 17 17 16 17 17 16   17 16 16 17 17 18 16 15 16 15   
246a  16 15 17 13 13 16 15 17 14 16   14 13 16 15 15 17 17 15 14 16   15 16 15 16 16 17 16 16 17 15   15 20 15 17 18 15 15 17 19 18   
246b  17 17 18 16 17 17 15 16 20 20   22 21 16 16 16 17 19 15 16 15   16 18 18 17 17 13 18 18 18 17   17 13 16 16 15 15 18 16 15 14   
247a  15 13 16 14 16 16 15 15 14 14   15 13 14 16 15 15 13 15 18 15   16 14 17 14 15 15 16 16 15 16   16 17 17 18 16 15 18 17 16 16   
247b  18 17 17 17 19 17 19 15 18 16   16 17 16 18 16 18 17 17 14 17   17 14 18 16 17 16 18 22 17 16   20 15 16 23 17 15 15 19 17 17   
248a  17 14 14 14 16 17 14 15 15 12   17 10 16 13 17 15 15 15 15 16   16 17 15 14 14 15 15 16 15 19   14 14 16 15 19 17 17 16 18 17   
248b  22 18 18 17 16 17 17 16 18 14   16 17 18 16 17 16 20 18 18 15   15 18 17 16 18 17 19 18 18 15   17 18 19 17 16 19 17 20 16 17   
249a  15 16 16 13 17 16 17 14 17 14   14 16 15 17 15 13 18 13 17 16   13 16 16 17 18 15 14 17 15 13   16 14 19 16 18 15 17 17 16 19   
249b  20 13 16 20 17 18 17 18 20 16   20 15 18 15 20 19 17 13 16 16   17 17 17  7 30 17 17 17 18 18   17 17 14 15 20 17 21 18 20 18   
250a  18 13 15 16 16 14 15 15 15 14   18 16 16 15 16 16 15 17 17 30    2 13 16 15 15 13 17 17 13 18   15 13 14 15 17 16 17 14 13 15   
250b  18 19 20 16 17 19 17 16 18 17   15 18 16 16 18 19 17 17 19 17   15 14 16 18 15 16 15 17 17 17   18 15 17 16 17 17 14 17 14 14   
251a  17 16 17 14 18 16 13 15 16 15   17 12 16 14 18 17 17 17 18 16   13 14 15 14 15 13 15 15 17 15   18 17 16 16 15 16 18 16 17 16   
251b  15 18 19 18 20 20 17 15 17 15   16 19 19 14 17 14 17 15 16 17   19 16 15 17 17 18 19 15 18 17   16 18 17 17 15 17 15 16 15 14   
252a  13 14 18 16 15 15 18 14 14 16   14 14 15 15 15 15 13 17 16 18   14 16 20 15 15 17 14 17 17 16   15 20 18 18 19 18 13 16 17 18   
252b  18 15 20 15 17 17 16 20 19 18   20 15 17 17 16 15 17 15 16 16   20 17 16 18 17 17 22 16 19 16   19 15 17 17 20 14 15 17 18 20   
253a  15 18 15 13 17 14 11 14 15 14   16 15 13 14 21 15 16 17 16 14   14 14 19 11 17 13 16 15 15 13   18 16 15 16 17 16 16 16 17 14   
253b  16 16 19 18 16 14 23 17 16 18   14 19 19 18 18 18 16 17 15 20   16 18 20 18 18 15 18 15 19 17   18 16 16 16 16 15 21 20 15 19   
254a  14 18 17 13 15 15 19 14 16 15   15 15 15 15 14 15 16 18 16 13   15 14 15 16 15 15 17 17 15 15   16 14 19 16 17 14 17 16 16 17   
254b  17 16 16 17 19 17 16 20 20 18   17 15 19 18 16 16 16 18 19 17   18 14 20 16 17 15 16 18 18 18   18 18 20 17 18 17 13 17 15 20   
255a  18 15 17 18 14 14 17 15 15 13   14 15 16 15 16 13 17 16 16 15   17 16 17 16 15 14 15 15 18 15   16 15 15 14 19 17 19 18 15 15   
255b  18 15 19 16 19 15 17 18 17 16   17 17 18 16 18 17 16 20 18 16   16 17 14 19 21 18 18 15 18 18   16 16 17 16 19 18 16 16 16 16   
256a  17 15 15 15 20 16 15 13 15 14   15 15 15 14 16 17 13 16 19 15   16 17 15 17 16 13 17 17 14 14   18 16 16 13 17 21 17 17 14 19   
256b  19 17 16 15 20 18 14 18 19 16   16 15 16 16 18 16 18 19 19 15   19 19 17 19 19 19 16 19 20 15   18 29  7 18 17 15 18 15 15 16   
257a  16 15 15 13 15 15 15 14 15 13   15 13 17 12 14 16 29 16 15 18   14 15 14 15 15 16 17 16 19 15   15 15 19 14 17 17 17 17 17 14   
257b  15 16 18 17 15 19 18 18 18 17   18 14 18 18 19 17 18 21 18 18   15 17 18 15 19 18 15 18 15 16   18 15 29 14 15 15 13 17 19 17   
258a  17 12 16 16 17 12 16 15 16 12   16 16 19 14 17 15 15 17 17 13   17 16 13 20 18 16 15 18 17 16   19 16 16 16 19 15 16 14 17 17   
258b  18 14 16 16 20 17 17 18 19 18   18 14 17 16 19 19 17 14 16 18   16 17 14 17 19 19 18 17 18 17   17 17 29 18 17 15 17 19 19 17   
259a  16 14 16 16 11 10 15 13 16 16   18 13 15 15 15 17 18 14 14 12   16 13 17 15 20 14 15 17 16 14   17 17 17 16 16 16 16 21 18 15   
259b  18 18 17 16 18 18 16 19 19 20   18 17 18 16 20 15 18 17 17 15   21 15 17 19 18 16 18 16 19 18   17 17 19 17 15 18 21 16 15 17   
260a  15 13 18 15 15 16 16 12 15 14   18 14 17 16 15 15 13 16 14 14   15 17 16 16 17 15 31 11 17 20   18 16 13 18 19 16 18 16 19 15   
260b  17 16 17 14 19 19 19 19 17 16   17 18 18 17 19 19 20 17 17 19   16 17 17 17 18 15 17 18 15 19   18 17 15 15 14 17 19 16 17 17   
261a  15 16 13 15 16 15 16 17 14 16   16 15 13 16 15 16 16 15 16 14   15 15 29 13 13 14 17 17 17 15   16 14 17 15 15 15 17 16 20 17   
261b  19  8 31 17 19 15 18 17 18 16   19 14 17 17 17 13 15 18 19 17   15 17 18 15 18 17 21 17 18 17   16 18 18 16 18 13 16 17 19 16   
262a  16 13 20 13 17 16 15 14 17 15   15 16 17 11 17 15 13 29  5 13   14 14 18 14 17 14 15 16 15 16   15 16 17 14 15 17 18 14 17 19   
262b  19 16 19 22 15 17 18 17 19 21   16 16 17 14 15 13 16 20 18 18   18 16 20 18 17 16 14 17 18 17   21 14 16 17 15 17 17 17 19 18   
263a  19 14 12 16 15 16 15 14 13 16   15 17 14 14 17 18 18 15 15 13   16 18 19 16 16 17 16  6 31 13   13 13 30 20 19 17 20 14 15 15   
263b  17 17 18 16 16 14 17 17 18 16   19 19 19 16 19 16 17 14 16 17   17 16 15 15 15 16 16 16 19 31   20 17 15 14 16 16 17 17 17 17   
264a  16 16 15 15 15 13 15 15 15 14   18 17 15 14 18 13 18 16 13 17   19 13 14 13 31 17 16 13 14 16   16 16 16 15 20 17 16 18 16 15   
264b  16 14 18 17 20 19 17 16 17 16   19 20 16 18 19 18 18 15 18 17   16 17 19 17 16 16 17 15 19 15   15 19 18 17 16 15 17 16 17 17   
265a  15 15 15 14 16 18 13 15 15 12   16 16 15 13 14 15 15 28  7 16   17 13 14 14 17 15 14 18 15 13   17 16 31 13 18 15 15 18 15 15   
265b  18 16 17 16 15 16 17 14 16 17   20 17 16 18 21 18 19 16 20 16   19 17 19 17 17 16 16 17 21 18   17 19 16 18 15 15 17 16 17 17   
266a  17 16 15 14 14 15 14 15 17 15   15 16 15 18 20 16 16 16 15 12   16 17 17 14 14 16 19 17 16 13   14 18 18 17 17 16 18 19 16 18   
266b  18 18 17 16 16 18 18 20 17 17   15 17 16 20 15 16 20 16 17 16   18 18 17 18 20 15 21 17 17 18   19 18 16 16 15 14 17 15 17 16   
267a  17 14 16 16 16 15 17 16 17 16   15 13 16 16 15 15 16 15 15 14   16 30  9 16 15 16 15 16 16 16   14 14 15 13 15 14 17 19 17 16   
267b  16 17 17 16 19 20 17 16 16 17   15 18 15 14 18 17 29 16 19 17   16 15 19 17 17 15 18 20 17 16   17 16 16 17 17 14 18 15 16 18   
268a  14 15 15 16 17 16 19 15 13 15   16 14 16 15 16 17 18 15 19 15   14 15 15 16 17 17 15 14 16 16   18 14 14 17 18 20 16 15 18 14   
268b  18 15 19 16 16 16 17 15 17 15   17 16 18 19 18 18 18 16 17 15   18 18 18 17 16 19 17 19 17 18   18 16 16 15 18 19 17 17 15 16   
269a  15 14 14 15 14 13 17 15 12 15   15 11 15 17 15 15 14 15 11 14   15 17 15 16 14 15 15 13 16 15   20 15 15 16 18 17 16 17 19 14   
269b  19 18 16 17 19 17 15 18 19 16   15 16 17 17 15 17 16 17 17 17   19 18 17 15 17 16 14 16 17 15   17 15 15 18 18 17 16 18 19 18   
270a  16 13 16 12 15 13 15 15 16 14   12 17 15 13 16 14 14 17 14 14   15 14 17 15 13 16 15 29  4 16   14 19 19 15 19 16 17 16 18 14   
270b  17 16 15 18 16 16 16 17 18 16   17 18 17 17 20 18 17 21 17 20   18 17 16 16 16 19 17 19 16 17   18 16 19 15 15 18 16 17 20 16   
271a  15 16 17 13 16 14 18 15 15 16   13 12 13 13 15 15 15 16 17 15   17 15 15 15 14 18 16 15 31 18   17 17 16 18 14 14 18 19 16 15   
271b  18 18 19 16 18 15 19 18 17 16   19 19 18 17 20 17 17 17 16 16   15 17 16 20 17 19 19 18 17 18   19 18 17 16 18 16 15 14 17 15   
272a  17 16 14 16 13 16 15 17 12 15   13 14 15 15 13 16 15 14 18 14   16 16 15 13 20 13 15 16 20 16   17 15 16 16 17 16 17 20 17 15   
272b  19 19 19 29 14 15 20 16 18 17   17 16 15 16 17 16 18 14 18 18   17 18 18 17 15 17 15 15 16 16   16 16 17 15 14 14 16 16 14 15   
273a  15 17 17 17 15 17 15 14 15 15   16 13 17 17 16  5 29 16 15 18   15 13 31 14 15 16 15 17 16 30   17 16 18 17 18 17 15 16 18 17   
273b  14 16 16 19 16 14 18 14 22 20   18 17 17 15 19 19 18 17 16 14   16 18 17 15 18 15 19 16 19 16   18 16 14 16 15 17 17 15 19 15   
274a  17 16 17 16 12 14 15 12 15 16   19 14 17 13 14 15 17  2 31 14   17 17 17 17 19 16 17 17 15 14   14 17 17 17 15 17 15 16 15 17   
274b  17 21 19 16 16 18 19 16 19 16   16 18 20 17 16 17 16 17 17 14   19 19 16 16 18 17 16 18 15 15   14 17 17 14 17 17 15 17 16 17   
275a  16 14 15 19 16 14 16 14 15 14   17 19 16 16 15 14 16 15 15 17   14 17 12 16 16 15 14 17 30 16   16 16 19 13 16 20 16 22 15 15   
275b  17 18 17 19 15 14 17 19 17 18   16 15 18 14 15 14 17 16 18 19   18 18 17 17 13 19 17 18 17 19   16 15 18 16 16 16 17 13 18 18   
276a  18 14 16 15 14 16 16 16 15 12   14 15 14 14 15 16 19 18 15 16   16 17 14 14 15 16 17 18 15 18   15 17 17 17 14 16 17 18 18 15   
276b  17 18 15 19 20 17 16 18 16 17   15 17 18 15 17 18 14 15 16 19   18 17 15 22 19 20 17 16 18 15   17 17 17 15 19 14 15 19 16 16   
277a  15 17 13 17 13 17 18 15 15 16   18 14 16 17 18 14 17 14 15 15   17 12 12 18 14 17 15 19 14 13   18 16 17 18 16 16 14 17 15 16   
277b  14 17 22 16 18 17 20 16 18 17   19 17 18 16 17 16 17 19 18 16   18 14 16 15 18 19 19 18 19 17   30 15 19 17 18 18 15 18 16 18   
278a  15 14 16 15 14 15 17 14 16 13   16 14 17 15 17 20 17 15 15 15   15 16 19  7 31 16 17 16 16 14   17 15 16 16 17 17 18 15 16 15   
278b  18 19 19 18 16 20 18 14 20 14   17 16 18 16 18 16 17 13 19 18   15 18 17 16 18 15 23 15 18 15   19 17 17 18 15 15 16 15 17 17   
279a  15 16 18 15 16 15 15 15 14 14   17 16 14 13 14 15 17 28  9 16   18 16 16 16 14 16 13 17 17 16   15 15 15 15 17 17 18 16 17 17   
279b  22 16 17 19 17 16 18 19 19 16   18 16 14 19 17 17 14 19 16 19   19 16 18 14 18 18 18 16 16 15   19 20 15 17 15 18 16 15 17 16   
280a  16 15 15 18 17 11 14 16 17 13   16 15 14 15 18 13 16 13 16 13   15 16 16 14 14 15 19 14 15 16   17 14 15 15 15 18 18 16 17 18   
280b  16 17 16 30 16 16 20 18 16 17   18 18 20 19 20 17 19 18 18 17   19 18 15 16 17 18 17 16 16 18   18 17 16 16 16 17 19 15 15 15   
281a  12 16 14 14 16 15 15 15 16 16   14 16 17 17 17 17 16 15 15 15   16 16 14 14 17 17 17 15 17 16   15 17 15 15 21 14 16 18 14 15   
281b  19 16 18 20 19 15 16 19 17 18   18 16 21 17 17 14 17 17 14 18   17 19 17 19 15 15 16 17 18 16   17 15 17 20 16 17 17 15 16 20   
282a  16 17 16 13 16 14 14 15 13 12   17 15 15 13 17 15 15 16 15 19   18 15 14 19 15 16 14 18 15 17   17 14 18 15 19 12 17 15 17 15   
282b  14 17 19 17 17 14 19 14 16 15   17 17 19 18 17 19 18 18 16 16   16 15 16 18 18 13 16 19 17 31    6 17 18 16 17 19 16 16 17 17   
283a  14 15 14 17 14 14 13 15 19 11   17 16 17 15 15 15 13 14 13 14   30 15 20 16 17 14 13 16 17 16   15 16 16 17 15 14 16 18 18 15   
283b  16 17 16 18 19 14 19 15 16 14   20 19 16 16 17 18 18 18 16 16   17 17 19 12 19 17 17 16 15 17   18 31 16 15 17 16 17 18 17 15   
284a  15 18 17 12 16 16 13 17 14 13   13 14 14 29 15 17 16 14 16 15   15 14 18 17 16  6 30 15 16 14   18 16 16 15 16 16 20 16 11 18   
284b  17 15 19 17 17 17 20 18 19 17   18 18 15 18 16 17 16 18 19 16   16 16 17 16 14 19 15 14 19 13   16 19 18 17 16 14 16 16 17 17   
285a  15 16 15 18 15 16 17 16 15 10   16 15 18 18 15 12 17 16 15 15   19 17 18 14 15 16 17 18 19 13   18 17 19 16 16 14 16 16 17 18   
285b  14 16 16 17 20 19 17 13 16 12   17 15 20 15 17 15 17 15 17 15   15 17 14 16 17 16 16 13 16 19   15 15 17 16 16 18 16 15 17 17   
286a  15 16 16 16 15 15 16 16 16 15   17 15 15 29 15 14 14 16 15 13   16 15 20 14 13 14 16 17 13 15   28 17 14 15 17 18 17 17 15 17   
286b  19 17 17 17 19 16 18 19 17 14   19 18 16 16 16 16 17 19 15 16   17 19 15 15 17 18 16 19 17 19   16 18 14 16 18 16 17 16 16 14   
287a  17 17 15 15 17 17 17 14 18 15   14 15 14 12 16 14 16 14 15 13   14 14 15 14 15 15 16 14 17 15   19 15 16 15 15 15 17 15 19 19   
287b  17 17 16 17 16 20 15 20 19 14   19 16 17 15 15 16 18 15 29 20   16 15 16 15 19 14 19 19 18 16   19 16 18 15 14 18 18 18 19 14   
288a  14 13 13 13 15 14 16 18 12 12   15 15 18 14 15 16 15 13 15 13   13 15 19 15 16 14 16 12 17 14   16 15 16 19 16 15 16 16 18 19   
288b  21 16 16 16 16 17 20 15 17 16   19 17 16 17 27 15 16 16 20 17   17 16 18 15 13 16 17 17 21 15   16 19 14 16 16 16 17 17 16 17   
289a  15 16 16 14 16 15 15 15 15 15   16 15 18 14 13 13 17 14 14 14   18 15 15 13 15 15 16 16 29 17   19 15 15 13 16 17 14 16 19 17   
289b  14 18 17 18 15 16 21 19 19 18   17 18 15 15 27 18 19 13 18 15   15 15 18 18 15 14 18 17 16 17   20 17 14 19 14 13 17 15 18 16   
290a  15 15 16 17 14 15 16 15 13 15   14 15 12 17 14 13 15 16 14 15   13 15 16 15 14 17 15 28 17 15   15 17 16 18 15 18 17 15 19 18   
290b  15 18 16 17 19 18 18 17 17 17   16 18 15 16 17 19 15 18 16 15   15 20 18 18 16 17 15 17 18 17   16 19 19 17 13 18 19 17 17 18   
291a  15 14 16 16 15 16 17 14 15 12   14 16 16 17 17 17 17 14 15 15   17 16 18 15 15 13 17 13 17 16   13 15 17 17 17 17 20 15 19 16   
291b  18 17 17 15 14 16 14 18 16 19   19 16 19 17 31 16 18 15 13 17   16 17 16 18 17 17 18 17 19 17   17 16 18 15 15 16 19 17 16 13   
292a  17 16 18 16 14 16 17 15 19 15   15 13 17 14 16 15 15 16 18 15   17 13 16 15 16 13 14 15 13 15   15 12 16 18 19 12 18 15 16 16   
292b  18 17 19 15 18 16 16 17 19 18   19 16 20 15 16 18 18 15 16 16   21 16 16 17 16 17 20 16 18 15   18 15 17 16 15 14 17 17 17 13   
293a  15 15 16 17 13 14 17 11 16 16   15 17 17 15 15 14 15 15 15 18   16 16 16 15 14 11 17 14 15 16   15 15 17 15 18 16 17 16 16 17   
293b  15 17 15 13 17 17 16 16 18 15   18 19 20 19 14 16 19 17 19 18   19 20 15 15 17 15 16 18 17 17   25 15 18 13 15 18 19 15 16 16   
294a  14 16 16 13 14 15 14 15 16 16   16 17 15 17 15 17 17 13 15 17   16 15 18  5 31 15 14 13 13 16   16 16 15 15 14 17 17 17 16 19   
294b  19 18 21 17 16 14 17 15 17 15   15 17 17 18 16 16 21 18 17 21   18 15 17 15 16 18 15 14 17  6   30 18 16 17 16 18 15 17 15 16   
295a  16 15 15 14 15 16 14 16 18 13   16 15 17 16 15 12 16 18 14 16   15 13 15 14 14 14 16 15 16 13   15 14 19 17 19 17 18 18 17 18   
295b  14 15 17 17 17 17 18 17 19 16   18 15 18 16 16 15 30 16 16 16   17 16 17 15 17 17 16 14 17 17   18 15 15 16 14 16 15 15 15 17   
296a  18 15 18 15 18 13 18 16 17 13   17 16 18 15 13 14 15 15 19 14   16 16 17 15 14 15 15 15 15 17   15 18 17 15 15 15 16 16 18 16   
296b  19 19 15 16 19 15 15 17 17 17   19 14 17 15 18 17 18 15 16 18   18 20 19 13 16 15 19 16 18 15   16 15 18 13 15 16 18 17 19 19   
297a  16 17 15 16 12 14 16 15 17 11   18 15 14 15 13 16 16 14 14 15   15 13 15 13 14 16 14 14 15 16   17 16 16 15 15 16 17 16 16 17   
297b  15 16 18 17 15 15 20 19 18 16   17 15 17 18 16 15 15 17 19 18   16 17 17 15 17 18 18 17 15 17   14 16 14 16 15 14 15 17 16 17   
298a  17 15 13 15 12 14 15 15 17 14   15 13 15 17 18 12 16 15 16 13   14 14 15 17 18 16 13 19 17 15   15 17 16 18 15 13 15 14 18 18   
298b  16 17 15 17 17 16 16 16 18 16   20 15 14 17 18 18 20 15 17 18   17 14 16 15 20 19 19 16 17 20   17 14 18 17 18 15 16 19 16 17   
299a  15 16 15 14 17 16 16 14 17 13   13 16 15 13 14 14 15 13 13 15   16 15 15 14 16 13 17 15 12 15   18 13 17 15 18 12 17 18 20 17   
299b  19 15 17 16 17 16 18 16 15 18   16 17 16 14 19 17 15 16 19 16   16 18 16 18 20 17 16 15 16 17   17 17 19 16 16 15 16 16 14 18   
300a  14 13 16 13 17 17 13 15 15 15   15 14 16 17 14 15 18 15 15 16   16 14 15 15 15 16 15 17 14 17   13 15 13 15 19 15 18 16 15 18   
300b  14 15 17 17 23 12 16 14 20 16   16 20 16 15 17 17 17 17 16 15   18 16 16 15 17 17 17 16 17 14   15 18 17  6 15 18 15 16 19 19   
301a  14 15 17 16 17 15 15 12 14 16   14 18 14 14 12 15 16 14 18 17   16 16 17 31  3 15 15 15 15 15   16 17 17 17 19 15 16 19 16 13   
301b  21 19 15 15 16 15 21 13 18 17   20 15 15 19 21 16 20 17 18 12   21 16 17 17 15 17 17 18 18 18   17 14 17 16 16 18 15 16 16 16   
302a  18 13 15 12 15 18 15 19 16 16   16 12 18 18 16 14 15 15 15 14   18 16 15 12 13 13 16 16 16 17   17 15 15 16 16 17 15 17 18 20   
302b  16 18 18 15 18 17 12 18 18 15   17 17 19 16 31 15 18 19 18 16   17  6 31 18 16 13 16 15  6 15   15 18 17 14 15 15 17 17 15 16   
303a  15 14 16 16 16 11 11 16 17 15   13 16 16 15 14 15 13 15 16 16   16 15 17 15 17 16 13 16 15 13   16 14 15 14 18 15 15 19 16 15   
303b  14 15 20 16 17 17 22 15 17 18   17 20 19 18 17 13 15 16 19 18   17 19 19 19 19 14 15  7 31 15   16 16 16 17 18 15 17 17 16 17   
304a  15 14 13 14 18 17 16 17 13 14   14 14 16 14 16 18 16 13 13 15   17 16 17 16 18 15 16 15 19 15   16 14 17 13 17 17 18 18 19 17   
304b  16 16 20 16 15 15 18 16 14 18   18 16 19 18 17 16 15 18 19 15   16 28  6 20 18 17 16 17 17 19   16 19 18 16 17 15 17 17 17 17   
305a  16 14 19 18 13 15 12 15 17 16   16 16 14 15 16 16 16 14 14 16   17 15 15 16 15 16 17 15 17 17   15 17 17 16 16 16 15 16 17 15   
305b  18 15 15 15 17 15 19 17 17 17   16 18 18 16 17 20 18 15 16 14   18 17 15 17 16 14 19 17 16 15   15 18 16 16 15 15 14 14 17 15   
306a  17 15 15 15 14 18 15 15 15 15   12 14 19 18 16 14 14 13 18 16   15 16 15 14 14 15 13 18 15 15   17 16 16 15 19 17 17 15 18 17   
306b  13 16 19 19 17 15 18 17 17 18   19 17 16 17 16 17 16 17 17 17   17 18 17 19 16 15 18 17 17 17   17 15  6 15 15 15 16 17 17 15   
307a  16 15 19 12 19 13 15 18 14 15   14 16 16 14 16 14 15 16 16 14   16 15 16 17 17 16 16 15 15 15   15 19 17 14 18 19 16 15 14 16   
307b  17 17 17 19 18 18 20 17 19 17   18 17 19 17 17 15 15 19 16 17   18 11 16 14 19 17 16 18 15 15   15 16 17 15 19 16 17 18 16 15   
308a  15 18 16 16 16 13 15 12 16 17   17 17 15 15 19 14 14 15 15 19   15 16 16 17 15 13 16 16 15 17   19 13 15 17 17 14 20 15 17 19   
308b  18 16 17 17 17 14 15 18 17 16   18 19 21 15 16 16 18 15 20 17   18 30 15  3 15 16 17 16 16 14   16 17 16 16 15 16 17 19 16 17   
309a  17 16 17 14 17 16 14 12 16 16   15 16 16 14 17 17 16 15 16 13   15 17 16 16 13 12 16 15 14 16   15 15 18 17 17 15 14 16 17 19   
309b  15 18 19 13 17 19 15 16 19 16   17 15 18 18 19 14 16 19 15 16   19 15 16 31  7 15 17 17 15 15   16 16 19 18 15 19 18 17 17 15   
310a  16 18 14 14 18 14 15 14 16 19   18 20 17 17 16 13 16 17 18 16   15 16 14 14 15 16 16 14 15 17   14 16 17 16 19 16 15 14 20 14   
310b  16 20 15 18 14 15 21 17 16 18   17 17 19 17 17 17 17 16 16 16   19 17 15 18 17 16 17 14 18 18   16 18 16 16 17 15 14 18 17 17   
311a  17 14 16 14 17 15 16 15 15 12   16 16 15 15 16 15 15 15 15 18   15 15 15 18 17 16 14 14 19 14   15 16 16 16 17 17 15 15 15 18   
311b  20 18 15 21 17 16 19 19 18 15   20 16 17 14 16 17 18 18 18 13   20 17 19 13 14 17 20 16 16 16   15 16 15 15 20 16 18 16 18 18   
312a  18 16 16 13 14 15 12 13 15 16   15 16 15 13 14 15 16 16 13 16   18 13 15 15 14 16 13 17 17 15   16 15 16 18 16 18 15 18 18 14   
312b  18 16 17 20 19 20 18 17 20 17   19 16 15 17 18 17 20 19 17 17   20 29  5 16 16 16 18 17 18 15   16 18 14 17 18 17 15 15 14 17   
313a  15 13 18 16 14 15 16 18 15 12   17 17 16 12 16 15 14 16 16 16   15 15 15 14 17 14 17 19 17 14   18 17 15 14 16 15 15 16 18 17   
313b  16 18 16 18 15 16 16 16 19 14   16 17 17 19 15 16 19 15 15 16   17 14 15 16 13 17 15 18 19  5   15 18 15 18 15 14 18 15 17 16   
314a  20 14 12 19 15 18 17 16 14 17   14 18 16 15 17 13 15 14 13 17   17 15 17 13 17 16 16 17 15 15   13 17 19 15 17 14 17 17 18 16   
314b  15 19 16 16 16 16 17 17 17 15   21 14 17 18 14 16 15 15 19 15   15 15 16 18 16 17 17 18 18 14   17 16 17 15 15 16 16 19 15 17   
315a  17 16 20 14 15 14 18 16 13 14   16 15 17 14 17 15 12 15 16 15   14 15 17 16 19 15 14 16 16 15   15 16 15 15 19 16 16 16 16 14   
315b  20 15 17 15 16 16 18 16 20 18   20 16 19 18 14 16 16 16 18 15   18 16 16 16 20 15 17 19 18 16   14 18 17 19 16 16 17 19 17 19   
316a  15 16 15 15 16 16 14 17 15 17   17 17 13 17 16 18 17 17 15 18   15 17 16 17 15 14 13 18 15 16   13 16 15 15 18 14 15 17 18 17   
316b  16 16 17 17 20 18 16 15 17 17   18 20 17 19 17 15 17 19 18 14   16 15 14 19 16 14 18 16 17 19   12 17 15 14 15 15 15 13 16 22   
317a  20 16 14 15 18 13 15 16 11 14   16 16 14 13 17 16 14 13 19 16   19 13 15 15 15 13 19 15 18 17   17 15 15 18 14 13 16 17 19 14   
317b  15 15 19 18 18 16 20 20 18 17   17 16 16 19 18 18 18 18 16 16   18 17 14 19 19 16 15 17 16 16   16 16 14 19 19 19 16 19 16 16   
318a  16 15 16 16 16 15 14 14 16 14   14 13 14 15 17 14 18 15 14 16   18 16 17 17 16 15 16 16 15 14   16 14 18 17 16 19 17 13 17 22   
318b  16 14 16 18 18 16 19 14 16 16   15 17 16 15 14 14 17 15 15 15   20 16 18 17 19 14 18 16 16 17   16 15 17 14 18 15 17 18 18 17   
319a  17 15 17 18 19 13 16 16 16 16   17 12 17 15 15 15 18 14 16 16   18 15 17 16 14 17 16 15 17 14   16 14 17 16 13 15 12 17 17 16   
319b  19 16 19 18 17 15 16 16 17 15   16 15 17 16 18 16 16 17 17 15   14 18 19 17 18 14 16 16 18 15   18 16 17 18 18 14 18 17 17 17   
320a  16 17 17 16 15 15 15 15 17 15   13 17 15 16 17 14 15 15 15 15   14 15 15 17 16 15 12 14 15 16   17 17 18 15 12 15 17 17 17 15   
320b  15 18 17 21 16 17 18 15 17 16   19 19 16 15 16 16 16 16 16 16   18 15 16 17 16 21 15 18 17 16   16 19 17 17 19 15 18 17 15 17   
321a  16 15 18 16 15 15 15 16 15 15   17 14 16 12 14 17 13 15 13 16   15 15 14 17 16 16 16 15 16 14   17 16 16 18 18 17 14 16 17 15   
321b  16 21 19 17 18 14 19 16 18 14   19 15 17 16 18 15 15 18 16 17   17 16 16  5 29 17 17 15 15 16   18 15 17 17 16 19 17 15 16 18   
322a  15 16 17 15 18 17 16 15 15 18   16 14 17 12 15 15 15 16 17 14   16 15 16 14 15 16 16 14 15 13   16 16 15 14 15 17 19 16 16 14   
322b  18 17 14 15 18 15 17 15 19 16   16 14 16 17 19 19 17 31 19 15   21 18 17 15 17 13 17 17 16 16   17 20 17 20 17 18 17 17 17 17   
323a  17 15 16 13 18 15 15 16 16 14   16 14 15 16 15 14 17 13 17 16   17 14 16 14 16 15 17 13 16 15   15 16 15 15 18 13 18 17 16 13   
323b  17 17 17 19 16 16 18 18 17 15   20 18 17 17 18 15 15 15 16 17   18 15 19 15 17 17 17 14 17 15   16 17 17 16 18 18 16 16 17 18   
324a  17 16 19 16 19 14 15 13 15 12   16 17 15 17 16 13 15 17 15 15   16 15 13 16 15 15 14 17 18 16   19 16 18 12 17 16 17 15 16 16   
324b  15 16 17 15 16 15 15 15 20  8   30 15 16 16 19 21 19 17 16 14   18 17 15 18 16 29 16 15 14 16   16 17 15 18 17 17 15 15 18 15   
325a  14 13 15 15 15 14 15 14 14 17   15 13 13 15 14 16 16 17 15 15   13 15 15 16 16 13 17 17 16 15   15 16 17 21 17 15 17 13 19 15   
325b  17 14 16 20 15 17 18 16 19 19   15 15 17 17 18 17 21 18 18 17   17 16 14 15 16 19 15 14 16 16   19 16 19 17 16 15 16 20 16 20   
326a  18 15 14 13 18 19 14 17 16 12   16 16 15 15 16 15 18 16 16 14   16 13 15 14 16 15 19 13 17 16   16 15 19 17 18 16 19 15 17 15   
326b  17 15 20 17 19 19 22 17 13 15   17 17 14 16 21 16 18 16 18  6   30 16 19 15 16 15 18 16 17 17   18 18 15 17 18 14 16 16 15 16   
327a  15 16 18 14 17 17 16 15 16 15   17 13 16 15 16 14 17 14 14 17   13 15 17 17 13 15 19 15 16 16   16 16 15 15 15 17 17 17 17 13   
327b  18 19 16 18 19 16 16 15 19 19   17 16 21 14 17 14 14 19 19 15   16 15 18 17 15 16 17 15 16 17   17 16 19 17 17 17 16 16 17 18   
328a  19 16 15 15 16 14 15 14 15 12   14 15 16 15 14 17 17 14 15 16   17 15 15 14 15 15 16 16 16 17   18 16 13 15 18 16 16 16 19 17   
328b  17 15 19 17 17 16 17 17 17 18   16 16 17 14 17 16 19 18 17 17   17 18 19 18 16 14 13 18 17 18   18 17 15 16 17 15 18 14 16 17   
329a  17 13 16 15 14 14 14 15 18 15   14 11 17 16 17 13 16 16 15 15   21 17 14 15 15 14 16 15 18 18   17 17 14 16 14 15 18 16 14 13   
329b  18 17 15 16 18 17 17 15 15 14   16 16 19 16 18 18 16 18 19 16   18 16 14 16 15 17 18 16 15 15   18 17 15 14 14 17 16 19 18 15   
330a  15 18 17 16 16 14 16 14 15 16   16 15 16 15 16 14 14 17 15 16   14 16 13 14 17 17 18 13 15 15   14 17 16 17 18 16 16 19 15 16   
330b  17 16 17 16 16 15 19 17 18 17   17 15 18 17 18 18 20 17 15 17   17 18 16 18 14 17 18 17 17 17   17 17 17 17 17 16 14 15 17 16   
331a  13 14 16 15 13 13 15 17 14 15   15 16 13 14 14 15 14 14 16 14   14 15 15 15 15 14 16 15 14 18   18 12 17 13 20 16 15 15 17 20   
331b  16 16 14 15 15 16 17 13 15 15   15 17 17 17 17 15 17 15 19 16   16 15 16 15 18 16 15 17 18 15   16 19 19 14 18 17 15 12 14 18   
332a  17 15 14 14 17 16 15 15 17 13   15 15 16 15 18 18 16 15 16 12   13 13 17 15 16 15 15 16 17 15   20 17 14 15 18 15 14 18 16 16   
332b  16 15 16 13 16 14 16 15 16 14   16 13 19 16 18 17 15 17 17 16   19 16 15 15 17 17 19 15 15 14   16 18 17 18 14 14 18 16 17 20   
333a  17 16 18 16 15 13 13 15 14 15   17 16 15 16 14 16 14 15 14 12   17 15 16 15 16 13 13 16 17 17   17 16 18 16 16 18 16 15 17 17   
333b  14 15 17 15 17 15 20 18 15 17   19 16 18 17 18 17 21 17 16 18   15 19 17 16 18 16 18 17 16 14   17 18 16 14 16 17 17 13 15 17   
334a  15 14 13 15 16 15 14 17 16 15   13 18 15 17 15 13 16 16 13 14   16 14 16 15 17 16 13 18 17 15   17 15 17 16 18 13 18 15 18 18   
334b  17 17 16 17 17 16 17 14 17 16   18 16 18 16 15 14 17 14 18 18   17 16 16 17 16 18 17 15 16 16   17 17 16 17 16 21 16 18 17 17   
335a  16 15 15 14 15 16 16 15 13 15   18 13 15 14 15 14 16 16 15 16   14 14 16 14 18 15 17 16 16 13   18 13 19 16 16 14 15 16 19 15   
335b  17 14 18 16 18 15 18 18 18 19   14 14 18 14 17 15 17 14 17 17   17 15 13 17 15 14 16 18 16 15   12 15 19 17 17 17 16 17 15 16   
336a  19 15 17 18 15 15 15 15 16 18   15 15 15 17 18 21 15 17 14 20   16 20 17 18 16 21 15 16 17 13   17 18 14 14 16 21 14 16 15 15   
336b  17 22 15 17 18 13 16 23 18 16   17 22 16 17 20 17 21 19 21 16   18 16 19 21 13 16 19 15 14 17   16 13 17 16 19 17 15 17 15 19   
